<?xml version="1.0" encoding="UTF-8" standalone="no"?>
<!-- The Vectorized GNU Head by Aurelio A. Heckert -->

<svg
   xmlns:dc="http://purl.org/dc/elements/1.1/"
   xmlns:cc="http://creativecommons.org/ns#"
   xmlns:rdf="http://www.w3.org/1999/02/22-rdf-syntax-ns#"
   xmlns:svg="http://www.w3.org/2000/svg"
   xmlns="http://www.w3.org/2000/svg"
   xmlns:sodipodi="http://sodipodi.sourceforge.net/DTD/sodipodi-0.dtd"
   xmlns:inkscape="http://www.inkscape.org/namespaces/inkscape"
   width="534.80035"
   height="607.00916"
   viewBox="0 0 534.643 522.526"
   style="overflow:visible"
   xml:space="preserve"
   id="svg2"
   sodipodi:version="0.32"
   inkscape:version="0.92.3 (2405546, 2018-03-11)"
   sodipodi:docname="frum-gnu.svg"
   inkscape:output_extension="org.inkscape.output.svg.inkscape"
   version="1.0"
   inkscape:export-filename="/home/yisraeldov.l/Downloads/frum-gnu.svg.png"
   inkscape:export-xdpi="96"
   inkscape:export-ydpi="96"><defs
   id="defs12"><inkscape:perspective
   sodipodi:type="inkscape:persp3d"
   inkscape:vp_x="0 : 261.263 : 1"
   inkscape:vp_y="0 : 1000 : 0"
   inkscape:vp_z="534.64301 : 261.263 : 1"
   inkscape:persp3d-origin="267.3215 : 174.17533 : 1"
   id="perspective14" />
		
	</defs><sodipodi:namedview
   inkscape:window-height="1034"
   inkscape:window-width="1920"
   inkscape:pageshadow="2"
   inkscape:pageopacity="0.0"
   guidetolerance="10.0"
   gridtolerance="10.0"
   objecttolerance="10.0"
   borderopacity="1.0"
   bordercolor="#666666"
   pagecolor="#ffffff"
   id="base"
   showgrid="false"
   inkscape:zoom="0.89095454"
   inkscape:cx="306.35269"
   inkscape:cy="339.33411"
   inkscape:window-x="0"
   inkscape:window-y="22"
   inkscape:current-layer="layer2"
   inkscape:showpageshadow="true"
   showborder="true"
   borderlayer="false"
   inkscape:window-maximized="0"><inkscape:grid
     type="xygrid"
     id="grid4727" /></sodipodi:namedview>

	

  <metadata
   id="metadata9">
    <rdf:RDF>
      <cc:Work
   rdf:about="">
        <dc:title></dc:title>
        <dc:description>A modified version of the original included the text &quot;empowered by&quot; above the GNU Head.</dc:description>
        <dc:subject>
          <rdf:Bag>
            <rdf:li />
          </rdf:Bag>
        </dc:subject>
        <dc:publisher>
           <cc:Agent>
             <dc:title />
           </cc:Agent>
         </dc:publisher>
         <dc:creator>
           <cc:Agent>
             <dc:title>Aurelio A. Hecker &lt;aurium@gmail.com&gt;, Shaddy Zeineddine</dc:title>
           </cc:Agent>
        </dc:creator>
         <dc:rights>
           <cc:Agent>
             <dc:title>Aurelio A. Hecker &lt;aurium@gmail.com&gt;, Shaddy Zeineddine</dc:title>
           </cc:Agent>
        </dc:rights>
        <dc:date>2008-04-08</dc:date>
        <dc:format>image/svg+xml</dc:format>
        <dc:type
   rdf:resource="http://purl.org/dc/dcmitype/StillImage" />
        <cc:license
   rdf:resource="http://creativecommons.org/licenses/by-sa/4.0/" />
        <dc:language>en</dc:language>
      </cc:Work>

    <cc:License
   rdf:about="http://artlibre.org/licence.php/lalgb.html"><cc:permits
     rdf:resource="http://creativecommons.org/ns#Reproduction" /><cc:permits
     rdf:resource="http://creativecommons.org/ns#Distribution" /><cc:permits
     rdf:resource="http://creativecommons.org/ns#DerivativeWorks" /><cc:requires
     rdf:resource="http://creativecommons.org/ns#ShareAlike" /><cc:requires
     rdf:resource="http://creativecommons.org/ns#Notice" /><cc:requires
     rdf:resource="http://creativecommons.org/ns#Attribution" /></cc:License></rdf:RDF>
  </metadata>
<g
   inkscape:groupmode="layer"
   id="layer2"
   inkscape:label="Layer 1"
   style="display:inline"><path
     inkscape:connector-curvature="0"
     id="path3769"
     d="m 425.36151,145.06182 v 28.56251 6.34766 c 0,0.71259 -0.21798,1.57345 0.0137,2.5 0.099,0.39586 0.39862,0.58426 0.57618,0.70312 0.17754,0.11884 0.25906,0.19979 0.25584,0.19336 -0.008,-0.015 0.005,0.008 -0.006,0.10937 -0.011,0.10098 -0.0469,0.25419 -0.0469,0.46093 v 0.20703 l 0.14647,0.1465 c 0.57517,0.57516 1.18103,0.99611 1.52345,1.50976 -0.069,-0.10348 -0.027,-0.13459 -0.0586,0 -0.0316,0.13459 -0.141,0.40353 0.0273,0.74024 0.15433,0.30863 0.39229,0.46145 0.54882,0.57617 0.15655,0.11472 0.23315,0.19091 0.24609,0.2168 -0.0303,-0.0606 -0.01,-0.0501 -0.0332,0.0781 -0.0236,0.1282 -0.0935,0.35259 0.006,0.65039 0.23172,0.69515 0.65067,1.15903 0.79297,1.58593 -0.008,-0.0246 10e-4,0.0265 -0.0195,0.16212 -0.0209,0.13563 -0.0724,0.35732 0.0195,0.63281 0.22553,0.6766 0.62121,1.15946 0.80273,1.61328 0.27853,0.69632 0.38568,1.56822 0.81054,2.41796 0.26153,0.52305 0.69676,0.73388 0.88673,0.92384 0.79341,0.79342 1.58743,1.58744 2.38086,2.38086 0.56225,0.56228 1.14872,1.01015 1.54101,1.5332 0.44757,0.59677 0.60192,0.86677 0.65624,1.0625 0.0543,0.19572 0.0371,0.44338 0.0371,1.01758 0,0.15901 -0.12504,0.50022 0.0254,0.95117 0.4797,1.43909 0.68618,2.04402 0.82227,2.33789 0.017,0.0367 0.0313,0.0695 0.0586,0.11328 0.0273,0.0438 0.005,0.1214 0.25978,0.22266 0.0319,0.0127 0.1127,0.0312 0.11328,0.0312 5.7e-4,9e-5 0.14398,8e-5 0.14452,0 8.4e-4,-1.2e-4 0.13578,-0.0638 0.20508,-0.0957 -0.0142,0.10001 -0.043,0.22402 -0.043,0.40625 v 0.0801 l 0.0254,0.0781 c 0.24161,0.72485 0.33516,1.6374 0.83983,2.47852 0.4974,0.829 0.83444,1.26336 1.14258,1.52734 0.25582,0.21916 0.52095,0.23874 0.68946,0.25196 1.5e-4,1e-5 -1.6e-4,0.002 0,0.002 0.0664,0.10709 0.23706,0.49829 0.50195,1.29296 v 0.002 c -0.008,-0.0245 0.001,0.0265 -0.0195,0.16211 -0.0209,0.1356 -0.0722,0.35544 0.0195,0.63086 0.23173,0.69516 0.65262,1.15902 0.79493,1.58593 -0.0156,-0.0469 -0.004,0.008 -0.0312,0.15429 -0.0269,0.14665 -0.09,0.4079 0.0586,0.70509 0.2485,0.49699 0.67459,0.74776 0.99219,0.9668 0.3176,0.21903 0.51137,0.38957 0.5664,0.55468 0.0377,0.11307 0.0303,0.29828 -0.006,0.5625 -0.0362,0.26421 -0.10056,0.59974 -0.004,0.98633 0.18983,0.75932 0.66852,1.22234 0.80274,1.62499 0.0146,0.0437 0.0406,0.26292 0.0312,0.52736 -0.009,0.26443 -0.0399,0.58306 -0.0703,0.90624 -0.0304,0.32319 -0.0609,0.64855 -0.0664,0.94726 -0.006,0.29874 -0.0166,0.55865 0.13281,0.85743 0.15433,0.30866 0.3923,0.46144 0.54884,0.57617 0.15653,0.11473 0.23119,0.19091 0.24414,0.2168 -0.0303,-0.0606 -0.008,-0.0501 -0.0312,0.0781 -0.0236,0.12822 -0.0935,0.3526 0.006,0.65039 0.23171,0.69516 0.65066,1.16099 0.79296,1.5879 -0.0221,-0.0661 -0.007,-0.007 -0.0391,0.14843 -0.0321,0.15538 -0.10519,0.4594 0.0976,0.76368 0.48744,0.73115 1.1657,1.17937 1.64845,1.66211 0.51269,0.51268 0.74534,0.72286 0.6875,0.62499 -0.0289,-0.0489 -0.0236,-0.10658 -0.0254,-0.002 -10e-4,0.0632 -0.006,0.23383 -0.01,0.36915 -0.0141,0.0272 -0.0679,0.0594 -0.0781,0.082 -0.0781,0.17422 -0.089,0.31093 -0.0957,0.46484 -0.007,0.15392 -3.2e-4,0.30763 0.0527,0.48242 0.0265,0.0874 0.0631,0.18537 0.15431,0.29103 0.0912,0.10565 0.27346,0.21483 0.46092,0.21483 0.0311,0 0.07,-0.0312 0.10547,-0.0371 0.0745,0.19941 0.13108,0.39389 0.27344,0.60742 0.32144,0.48213 0.84259,0.88682 1.33009,1.30077 0.48749,0.41398 0.93243,0.85514 1.01758,1.0254 -0.0855,-0.17101 -0.0272,-0.0767 -0.0215,-0.004 0.006,0.0728 0.0113,0.18473 0.0137,0.31641 0.005,0.26338 6.1e-4,0.61004 -0.006,0.96485 -0.0129,0.70962 -0.0391,1.42448 -0.0391,1.67382 h 0.99999 c 0,-0.16555 0.0259,-0.93296 0.0391,-1.65429 0.007,-0.36066 0.011,-0.71554 0.006,-1.00196 -0.003,-0.1432 -0.007,-0.26879 -0.0156,-0.37695 -0.009,-0.10817 0.0296,-0.14011 -0.082,-0.36329 -0.2665,-0.53297 -0.77129,-0.92201 -1.26563,-1.34179 -0.49436,-0.41978 -0.9864,-0.85361 -1.14648,-1.09373 -0.1115,-0.16726 -0.19823,-0.41962 -0.3086,-0.7168 -0.0803,-0.21625 -0.23812,-0.45578 -0.39844,-0.68751 0.003,-0.20533 0.01,-0.37292 0.0117,-0.49804 0.003,-0.14916 -0.007,-0.34823 -0.11133,-0.5254 -0.20944,-0.3543 -0.37406,-0.35451 -0.8418,-0.82225 -0.57516,-0.57515 -1.18099,-0.99612 -1.52343,-1.50977 0.0562,0.0842 0.0233,0.11579 0.0488,-0.008 0.0255,-0.12359 0.11357,-0.34897 0.008,-0.66601 -0.23171,-0.69516 -0.65067,-1.161 -0.79296,-1.58789 0.0156,0.0469 0.004,-0.006 0.0313,-0.15234 0.0269,-0.14665 0.09,-0.40791 -0.0586,-0.70508 -0.15433,-0.30865 -0.39033,-0.46342 -0.54686,-0.57813 -0.15655,-0.11471 -0.23316,-0.19091 -0.2461,-0.21679 0.0179,0.0359 -0.0318,-0.1489 -0.0273,-0.39063 0.004,-0.24173 0.0323,-0.55166 0.0625,-0.87305 0.0302,-0.32138 0.0632,-0.65403 0.0742,-0.96484 0.011,-0.31081 0.0142,-0.59013 -0.082,-0.87891 -0.23981,-0.7194 -0.68619,-1.16266 -0.78322,-1.55079 -0.0316,-0.12655 -0.0123,-0.33195 0.0254,-0.60741 0.0377,-0.27547 0.0944,-0.62689 -0.0351,-1.01562 -0.18151,-0.54455 -0.61422,-0.83281 -0.94727,-1.06251 -0.33305,-0.22969 -0.58193,-0.41776 -0.66796,-0.58984 0.0303,0.0606 0.01,0.0501 0.0332,-0.0781 0.0236,-0.12821 0.0935,-0.3526 -0.006,-0.65039 -0.23171,-0.69516 -0.65067,-1.15904 -0.79297,-1.58594 0.008,0.0245 -0.001,-0.0265 0.0195,-0.16211 0.0209,-0.13566 0.0724,-0.35543 -0.0195,-0.63086 -0.27203,-0.81607 -0.42544,-1.22156 -0.60352,-1.50781 -0.089,-0.14313 -0.20677,-0.28298 -0.38281,-0.36133 -0.17603,-0.0784 -0.33285,-0.0598 -0.38476,-0.0566 -0.10383,0.006 0.0328,0.0657 -0.11915,-0.0644 -0.15187,-0.13012 -0.46421,-0.49768 -0.93553,-1.28321 -0.34062,-0.56769 -0.45413,-1.36193 -0.71485,-2.18359 0.006,-0.0664 0.0178,-0.15174 0.0332,-0.29298 0.0186,-0.17047 0.032,-0.41248 -0.0937,-0.66405 -0.23252,-0.46501 -0.40182,-0.76482 -0.55078,-0.97461 -0.0745,-0.1049 -0.13693,-0.18723 -0.25001,-0.27344 -0.0565,-0.0431 -0.12813,-0.0936 -0.24805,-0.11914 -0.0482,-0.0103 -0.10865,0.0251 -0.16797,0.0312 -0.12373,-0.35452 -0.13237,-0.35022 -0.3418,-0.97851 -0.017,-0.0508 0.0254,-0.26484 0.0254,-0.63477 0,-0.53879 0.0402,-0.87291 -0.0742,-1.28516 -0.11446,-0.41225 -0.35621,-0.77572 -0.82032,-1.39453 -0.50537,-0.67385 -1.13719,-1.14501 -1.63281,-1.64062 -0.79342,-0.79341 -1.58744,-1.58744 -2.38086,-2.38086 -0.33899,-0.33898 -0.62619,-0.51804 -0.69921,-0.66406 -0.32318,-0.64634 -0.43271,-1.48508 -0.77539,-2.34181 -0.25773,-0.64434 -0.63472,-1.11312 -0.7832,-1.5586 0.008,0.0246 -10e-4,-0.0265 0.0195,-0.16209 0.0209,-0.13563 0.0724,-0.35733 -0.0195,-0.63282 -0.23173,-0.69515 -0.65261,-1.15902 -0.79493,-1.58594 0.0156,0.0469 0.004,-0.008 0.0312,-0.15429 0.0269,-0.14664 0.09,-0.4079 -0.0586,-0.70508 -0.15433,-0.30865 -0.39034,-0.46145 -0.54687,-0.57617 -0.15654,-0.11473 -0.23315,-0.1909 -0.24611,-0.2168 0.0501,0.10016 0.0161,0.0835 0.0508,-0.0644 0.0347,-0.14796 0.13367,-0.45969 -0.082,-0.7832 -0.43767,-0.65655 -1.01462,-1.06193 -1.48046,-1.49219 0.008,-0.0585 0.0106,-0.088 0.0195,-0.16992 0.0186,-0.17048 0.032,-0.4125 -0.0937,-0.66408 -0.17049,-0.34097 -0.44105,-0.4746 -0.59572,-0.57812 -0.15464,-0.10351 -0.16841,-0.14628 -0.16015,-0.11327 -0.15323,-0.6129 0.0156,-1.38357 0.0156,-2.25781 v -6.34766 -28.56251 z"
     style="color:#000000;font-style:normal;font-variant:normal;font-weight:normal;font-stretch:normal;font-size:medium;line-height:normal;font-family:sans-serif;font-variant-ligatures:normal;font-variant-position:normal;font-variant-caps:normal;font-variant-numeric:normal;font-variant-alternates:normal;font-feature-settings:normal;text-indent:0;text-align:start;text-decoration:none;text-decoration-line:none;text-decoration-style:solid;text-decoration-color:#000000;letter-spacing:normal;word-spacing:normal;text-transform:none;writing-mode:lr-tb;direction:ltr;text-orientation:mixed;dominant-baseline:auto;baseline-shift:baseline;text-anchor:start;white-space:normal;shape-padding:0;clip-rule:nonzero;display:inline;overflow:visible;visibility:visible;opacity:1;isolation:auto;mix-blend-mode:normal;color-interpolation:sRGB;color-interpolation-filters:linearRGB;solid-color:#000000;solid-opacity:1;vector-effect:none;fill:#000000;fill-opacity:1;fill-rule:nonzero;stroke:none;stroke-width:0.99970579px;stroke-linecap:butt;stroke-linejoin:miter;stroke-miterlimit:4;stroke-dasharray:none;stroke-dashoffset:0;stroke-opacity:1;color-rendering:auto;image-rendering:auto;shape-rendering:auto;text-rendering:auto;enable-background:accumulate" /><path
     inkscape:connector-curvature="0"
     id="path3763"
     d="m 440.76972,209.78449 c 0.0286,0.002 0.10605,0.0459 0.12305,0.0449 0.0574,-0.003 -0.005,0.007 -0.082,-0.0274 -0.0538,-0.0239 -0.0428,-0.0206 -0.041,-0.0176 z"
     style="color:#000000;font-style:normal;font-variant:normal;font-weight:normal;font-stretch:normal;font-size:medium;line-height:normal;font-family:sans-serif;font-variant-ligatures:normal;font-variant-position:normal;font-variant-caps:normal;font-variant-numeric:normal;font-variant-alternates:normal;font-feature-settings:normal;text-indent:0;text-align:start;text-decoration:none;text-decoration-line:none;text-decoration-style:solid;text-decoration-color:#000000;letter-spacing:normal;word-spacing:normal;text-transform:none;writing-mode:lr-tb;direction:ltr;text-orientation:mixed;dominant-baseline:auto;baseline-shift:baseline;text-anchor:start;white-space:normal;shape-padding:0;clip-rule:nonzero;display:inline;overflow:visible;visibility:visible;opacity:1;isolation:auto;mix-blend-mode:normal;color-interpolation:sRGB;color-interpolation-filters:linearRGB;solid-color:#000000;solid-opacity:1;vector-effect:none;fill:#000000;fill-opacity:1;fill-rule:nonzero;stroke:none;stroke-width:0.99970579px;stroke-linecap:butt;stroke-linejoin:miter;stroke-miterlimit:4;stroke-dasharray:none;stroke-dashoffset:0;stroke-opacity:1;color-rendering:auto;image-rendering:auto;shape-rendering:auto;text-rendering:auto;enable-background:accumulate" /><g
     style="overflow:visible;fill:#000000"
     transform="translate(-16.980041,28.830525)"
     id="g5"><path
       style="fill:#000000;fill-rule:evenodd"
       d="m 141.05977,365.56381 c 12.00511,33.59995 38.34058,59.24214 66.42198,79.97 -28.76957,-27.69949 -58.08532,-59.056 -64.26638,-100.24282 -1.64775,-26.86334 -15.66244,-69.99702 21.7682,-72.4672 15.11192,-13.04536 9.59162,23.04368 11.56307,31.3804 13.54867,8.78306 2.01261,37.7687 23.75512,36.93162 -4.2771,15.32378 25.61055,9.53124 9.32299,21.805 -3.61525,18.7908 18.02616,20.98911 23.95287,30.98463 24.59803,1.32256 -16.29017,23.5587 7.65825,32.80166 11.73982,7.98147 36.84863,22.04056 10.48088,30.82671 -8.66233,10.70593 18.95226,30.08048 4.67,12.521 -2.67442,-13.52875 29.50324,-13.85117 13.87862,-32.24775 -11.71213,-21.41778 20.48834,15.93639 17.16375,21.58963 -15.43945,7.98206 -2.40981,35.3408 2.34397,30.53907 -11.11466,-9.44981 5.80743,-28.58737 4.35722,-9.54968 3.5709,12.33533 36.1407,27.72639 30.93656,19.66386 -27.25057,-20.35004 29.66141,10.07869 25.64158,-0.21352 -10.81742,-1.38963 -18.40536,-21.19513 -3.29945,-7.21224 8.33982,13.33924 57.17209,-1.127 25.36456,1.61432 -11.04068,2.23313 31.0953,-27.46402 16.71624,-22.92188 -12.21607,8.00088 -16.85933,9.99319 -8.00205,-3.43881 -21.4605,8.9039 -38.79139,-24.92698 -11.164,-30.128 15.45632,-14.32927 -16.12826,-46.6263 16.952,-47.72 33.96407,7.45793 10.01403,-37.98345 35.12433,-40.43892 22.71282,-15.109 -24.96697,-28.65685 1.36917,-38.18296 23.52193,-9.46137 25.23882,-62.09395 -4.9145,-57.15112 -21.77724,12.6937 -28.49469,-52.29721 -8.51783,-24.63099 20.51784,15.93957 53.597,29.76306 77.60861,14.45963 13.38784,-15.37223 -34.35791,-19.2651 -11.2788,-32.67522 38.63498,-10.00951 66.45603,-45.6613 70.40887,-84.85625 3.16358,-30.071475 -0.0925,-61.586048 -11.31813,-89.653293 -31.26849,-36.29271059 -84.02774,-49.583167 -129.1342,-45.0654292 -20.47705,3.1003469 -52.86404,7.1074577 -65.30424,19.4108672 14.62401,21.380596 49.46365,15.897909 71.43167,15.035813 33.53473,-4.126002 74.402,13.94178 78.91307,51.004482 10.49877,26.92179 -14.33696,81.43916 -43.89446,46.69344 C 423.07335,95.957335 406.20396,52.717746 364.57466,46.973407 336.20997,34.374812 315.78951,81.772229 293.90165,63.937896 263.57733,35.225595 210.03561,40.961775 185.24154,74.185155 164.09594,94.768685 148.4566,121.67327 123.17938,137.54931 99.177228,146.36397 81.959994,115.89958 84.843148,95.077395 85.070228,60.628845 111.05106,28.229644 145.3952,22.157386 171.81013,13.608053 198.97161,31.336697 225.44732,21.164229 241.7722,16.100325 246.44595,-8.5060001 225.07275,3.4170482 201.70642,-6.2677853 180.01274,-23.686233 152.74281,-20.412972 100.81827,-23.9535 44.42488,4.1795992 27.208795,55.564913 15.728331,89.551541 17.868137,128.70642 32.176934,161.52052 c 15.593899,31.81489 44.659857,59.19853 81.511836,61.59929 1.97342,27.73233 -20.881468,45.27226 -31.219016,67.72 2.612974,15.54279 25.075836,0.88377 36.654356,3.38912 22.18506,-28.26331 10.1161,21.27391 13.71572,35.06751 1.019,12.39634 3.73828,24.65826 8.21994,36.26737 z m 190.80198,-93.978 c 17.21377,-2.77333 29.20149,32.40736 24.404,34.01742 -2.19056,-15.07672 -21.72011,-35.96497 -26.82375,-16.97839 -15.37654,0.0344 -12.98508,-21.10493 2.41975,-17.03903 z m -36.072,-6.08 c 2.92995,-28.30146 43.20022,-27.13494 59.034,-10.261 10.50887,5.1156 31.81354,23.78825 31.86337,23.41675 -22.87534,-6.02535 -39.61781,-32.73656 -65.52528,-29.83884 -15.78721,-2.41716 -27.49465,26.60609 -8.84759,9.16046 10.25163,-3.26151 22.37036,13.11604 5.35663,4.26776 -13.72947,2.87325 -7.07503,25.24297 -13.47813,17.68887 7.59542,18.41661 -12.51365,-10.56484 -8.403,-14.434 z m 4.82,-53.46 c 5.16013,-25.23328 7.90958,9.29599 -7.859,5.96 l 4.15675,-2.59787 z m -49.151,71.368 c 10.3812,-2.82006 21.14278,1.03319 3.599,2.891 -1.68983,10.7477 -9.14729,4.39244 -3.599,-2.891 z m 37.491,-148.21999 c 15.32286,1.94689 17.88025,4.26588 22.1355,20.52887 10.2891,8.65078 13.8573,18.73483 18.1891,33.30227 -18.17401,-15.51122 -18.43324,-40.67766 -39.74085,-49.47677 z m -17.101,41.76899 c 24.61041,9.81237 18.19181,-26.62015 -2.816,-15.579 -13.53885,4.75765 -26.2495,10.21973 -6.66977,-0.61431 23.14916,-23.99924 40.57532,28.08305 32.78477,22.84531 -19.42529,-8.00174 2.27404,26.3597 -23.41963,17.22412 -2.15161,-10.73519 -15.98876,-18.89641 -16.10767,-5.02262 9.50455,20.44601 45.61519,5.75755 42.30267,2.11525 -9.27559,34.95424 -79.48425,-12.81297 -34.34937,-19.02675 l 4.19112,-1.06588 z m -36.861,-28.501 c -6.58058,-11.76754 -12.95469,18.81538 -24.321,20.902 -9.30556,6.38694 -20.40554,10.92508 -5.17355,0.87056 9.27086,-17.93874 21.36959,-32.2962 41.54255,-35.66254 23.70511,-21.59315 -5.97533,41.59837 -14.291,28.5451 3.80278,-3.97064 1.68664,-9.87264 2.243,-14.65512 z m 135.98979,33.25751 c -16.37906,-0.3322 1.14455,18.11068 0,0 z m -9.58801,-12.31495 c 4.84072,-7.40481 10.42577,-17.84693 20.03492,-7.52968 -10.74023,-8.55227 -16.4069,-6.87048 -5.70747,-19.79149 -26.20079,-12.492 -27.51557,44.12287 -8.67772,55.74914 20.4823,17.47531 16.90171,56.85093 46.04411,63.41047 27.01847,-13.73501 29.60966,32.01486 10.86438,41.949 -6.4438,10.66845 -41.26188,19.49488 -34.19527,20.38975 18.85377,-12.22483 49.46055,23.07745 16.29327,23.99025 -29.96928,-6.21592 -58.86333,15.08896 -88.368,3.557 -24.93244,-7.43425 -28.56007,-47.47136 -19.82629,-53.64053 -8.55523,7.78209 -7.11417,27.7344 -14.75359,8.33928 -1.1757,-11.49993 -28.8735,-12.99594 -8.81812,-6.19275 15.57223,20.75825 21.57941,55.59374 51.88512,60.27675 24.52149,5.07359 48.24586,-10.05899 72.95861,-3.0219 14.67192,10.4381 1.03251,37.02133 -18.69032,26.42191 -21.33977,1.96025 -44.10263,2.56275 -63.76441,11.47524 14.9173,6.64369 26.58309,5.6751 41.442,1.72325 6.99407,3.4931 5.93872,18.87123 12.23525,27.27925 0.63769,6.44503 -14.99224,23.35204 -13.61125,9.5125 -8.49966,14.35797 -12.96946,12.05805 -7.164,-3.466 -1.89507,-25.41597 -3.05722,20.12606 -21.35462,17.191 -13.57719,3.28926 -19.56859,19.03588 -9.57038,29.36 -18.58216,-10.14063 -6.07696,-33.95721 -29.2828,-39.39692 -15.94419,-8.06517 10.11266,-32.75963 -9.8952,-22.16608 -13.44273,-0.74687 2.58879,-31.43298 -12.486,-12.04 -19.95231,-0.0679 -2.25893,35.47768 -18.496,17.335 -0.5061,-15.28378 6.58696,-42.9344 -21.364,-41.829 -24.40938,-4.23327 11.98582,-33.84635 -16.909,-31.747 -1.94305,-17.04751 -26.14808,-13.57005 -18.56799,-35.718 -13.12152,-15.37254 -16.75341,-51.36111 5.89112,-63.21462 7.85942,-11.76602 13.78669,-23.6826 17.17987,-4.78938 5.7053,11.14704 17.07937,24.66659 6.544,6.929 -13.14064,-22.08229 1.32822,-46.98955 -2.169,-70.45 -2.52901,45.50972 -36.88811,89.23072 -83.38098,95.0885 -15.69764,9.91541 -30.09364,12.82037 -47.074998,18.7615 3.22065,-17.01952 23.675408,-22.84009 24.191278,-42.53631 11.73689,-16.92347 6.36841,-41.92538 18.53462,-60.54615 9.50747,-26.4752 27.50503,-50.41922 54.75565,-60.25111 28.46733,-8.50403 57.53281,-10.34178 86.4889,-11.86726 14.60934,-10.10799 26.17073,-8.94195 31.51284,8.01233 14.37295,6.37269 42.15507,12.76161 28.0474,23.47653 19.95686,5.28079 15.42551,-15.42864 7.75303,-23.32551 26.8576,-12.71574 22.6201,-44.274431 -3.66632,-53.958276 -33.31383,-7.305321 16.18083,-28.810286 32.56541,-20.959404 39.57118,9.086364 52.78073,52.77994 79.63649,78.21223 26.12887,30.3708 55.77255,-14.56641 47.8502,-41.853567 1.06547,-33.40382 -25.60593,-59.998938 -57.93773,-63.391882 -28.53255,-6.248143 -59.75747,3.57383 -86.59287,-10.815686 14.09497,-4.2633501 50.62306,-15.4307105 76.60414,-12.55517259 37.19754,-0.662688 78.15116,8.45067749 102.84177,38.23944459 14.29632,33.090537 17.09072,72.501583 6.00397,106.984883 -11.98634,28.77055 -33.684,59.23148 -67.70093,61.45841 -7.5942,-14.20012 -9.3342,-35.18504 1.60928,-12.06703 2.21015,-1.30485 -2.62014,-25.07291 5.73636,-8.32304 6.39245,14.66391 4.0796,-20.04113 9.13885,-7.48926 5.64725,16.20979 6.29706,-0.13113 8.14813,-8.64775 7.69588,7.54871 12.58463,11.1694 7.55136,-2.92022 0.45965,-6.68551 20.31678,3.48996 7.24822,-10.38735 7.67137,-0.46938 14.79452,-1.67613 5.18237,-13.00515 6.21899,-3.02918 12.88944,-4.9136 2.22186,-14.65739 2.80287,-4.58058 19.34238,-4.71218 5.03045,-13.29826 -11.06774,-6.71157 16.60103,-12.52721 1.36187,-18.560912 -6.51185,-5.91669 12.62675,-14.556415 -0.37202,-21.057298 C 514.6606,70.59477 528.77367,58.648191 517.258,53.8075 512.35591,47.017474 520.77729,33.021414 507.20573,33.056862 502.14324,25.028773 495.23423,21.016584 485.42249,22.258803 480.12116,14.370162 472.57552,11.986141 462.85607,14.15571 454.28956,9.5196719 445.42229,7.741497 436.02732,10.977779 426.40573,9.4595019 416.83196,5.9685171 407.08734,9.6315119 396.04808,9.4285979 386.27011,5.9144111 377.43885,12.415351 c 4.52848,0.515817 17.38674,0.725504 24.92479,2.767412 8.17807,7.786108 16.01441,-4.999356 23.6558,1.448758 7.9895,3.586294 18.59215,-1.612283 25.58877,2.969771 4.85555,10.105135 19.13277,-0.415395 23.23476,8.756695 1.61142,10.733365 19.58107,3.061987 17.7819,14.792831 -3.05094,10.917146 14.32027,12.643941 8.16252,23.09791 -5.6855,9.373116 11.11598,16.554301 3.64928,25.203003 -9.66557,7.205903 9.2253,16.946569 -2.33493,21.263209 -8.27518,3.89435 5.48053,20.01953 -5.33378,20.9736 -12.32486,-2.09255 -2.34404,19.47442 -14.50664,14.24325 -9.75489,-2.59531 -12.44781,15.91025 -19.73075,0.72768 -23.83223,-10.70375 -39.13439,-32.99612 -53.94023,-53.773575 -16.23739,-21.29318 -46.33328,-41.21204 -72.7826,-25.53276 24.02548,5.465789 27.66415,38.764315 23.54396,45.449985 21.57626,-3.9663 14.20627,25.61967 30.14064,34.66917 11.86798,21.79312 -21.79002,31.3444 -28.72756,23.94269 l 0.62474,-4.01061 z m 26.18541,5.28247 c 12.71599,5.90819 9.98646,21.83496 -1.92221,9.62655 8.40227,15.36636 -27.86147,16.29129 -2.27344,16.60891 11.1611,-6.54397 13.55689,-6.78105 9.17198,3.88774 7.76381,25.04864 38.43953,31.28844 60.01648,40.32277 13.57336,7.86629 42.96306,-8.75439 18.67116,-14.25182 -4.68673,-25.59654 -29.94085,-41.63539 -33.29405,-68.70169 -9.90839,-19.77214 -34.92288,-51.69326 -57.88313,-37.12363 4.41087,15.74377 26.56515,32.01356 7.51321,49.63117 z m 1.10745,29.1135 c -21.90101,2.10901 10.22217,36.95846 8.32245,36.79981 0.67148,-12.83905 -6.9396,-24.05788 -8.32245,-36.79981 z M 299.38975,93.116958 c -11.47525,32.952672 45.72484,34.703352 40.72226,53.815462 11.59943,-9.62853 -17.57585,-23.16584 5.81907,-31.03967 30.63813,-19.116755 -29.36305,-45.707106 -24.13857,-41.014206 16.18559,4.715617 11.60567,36.717486 16.5478,36.489536 C 325.8869,98.715764 322.30574,74.497995 300.40517,76.36458 277.89129,48.049606 232.93116,40.439132 203.69604,62.512028 176.41747,85.574393 158.58467,118.39 129.85373,139.68348 105.51881,155.74101 78.218979,126.61297 80.374149,102.04796 77.140621,61.996546 107.53682,21.503196 148.09938,16.373625 175.60846,8.247205 205.56486,29.979362 231.06202,12.436591 244.45922,0.29868741 211.01907,12.892771 205.20067,-0.64447459 178.03468,-19.563207 142.29873,-17.247793 111.22303,-11.923259 59.830881,0.19347941 19.527972,50.760704 24.522176,104.2648 c -0.86013,50.08697 32.289814,105.84056 85.228654,112.37071 10.75628,1.67155 7.20511,-17.40967 11.35502,-25.32056 -0.51057,-3.97551 -12.24964,22.01337 -10.77606,10.02257 1.8649,-13.7116 -0.82598,-14.82163 -8.18566,-3.01746 -5.150329,5.17197 -3.720412,-25.61265 -10.018038,-8.52525 -6.014251,15.38455 -6.090641,-4.91406 -8.434734,-11.58513 -6.985207,5.60257 -15.610647,14.29424 -9.511377,-0.64719 7.784643,-12.99488 -22.151292,3.18954 -11.124878,-8.81554 13.339248,-12.2876 -18.083489,0.44403 -7.453263,-10.9528 13.415721,-11.80686 -6.592394,-8.53996 -5.533764,-13.81135 9.516195,-8.48376 8.602075,-13.57438 -4.472042,-14.70917 -7.623839,-3.43806 18.912576,-12.11145 5.532161,-16.94644 -15.81807,-5.91727 1.878503,-10.18478 0.0447,-16.771515 -9.844782,-7.447792 -6.008181,-14.449186 2.142593,-21.30985 -1.53974,-8.491869 -6.531595,-17.958952 4.393832,-22.441147 3.167021,-7.892739 -0.47689,-20.313361 11.090551,-22.011845 6.44438,-5.353145 7.3292,-17.977712 18.53871,-15.347322 11.084927,2.963839 8.66164,-16.7140125 19.588599,-12.6312027 9.60261,3.4407508 16.64078,-5.5058147 24.96712,-6.9731266 8.85036,3.3722658 17.59031,3.3214588 26.20069,-0.747525 10.17625,-2.1153419 20.69629,3.8291108 31.24657,3.8625318 3.99721,1.59370291 22.00081,15.2468045 13.11446,11.3443834 -9.37784,-2.0458259 -19.12986,-10.8105094 -27.96433,-3.0989158 -8.05786,4.1969129 -14.72706,-9.0571335 -22.5218,0.6814599 -7.87347,3.420064 -19.21274,-3.3687258 -24.53471,3.817168 -3.33053,11.629128 -17.96951,2.042341 -22.65944,9.193434 -1.5766,10.350649 -10.134869,13.145905 -19.094969,15.506327 0.1401,9.497307 -0.986613,18.306077 -10.71499,22.43965 -0.0802,8.064095 4.854328,18.010819 -3.741065,25.182908 -7.896243,7.752678 10.475258,16.140154 0.39035,23.966157 -8.787036,8.71945 12.657562,8.99147 4.978755,20.11857 -7.24243,13.93342 10.80711,8.41499 12.317711,17.66146 -2.202271,14.81814 11.134718,5.45882 17.565258,10.53508 7.184,15.54926 13.75736,-4.4587 23.68509,-6.22294 41.18435,-18.83207 56.56717,-70.670869 101.86538,-83.099603 25.49471,-12.689459 52.58541,11.391883 67.20199,19.908276 5.66135,-7.452012 -1.08126,6.179295 0.1605,7.227355 z"
       id="path7"
       inkscape:connector-curvature="0"
       sodipodi:nodetypes="ccccccccccccccccccccccccccccccccccccccccccccccccccccccccccccccccccccccccccccccccccccccccccccccccccccccccccccccccccccccccccccccccccccccccccccccccccccccccccccccccccccccccccccccccccccccccccccccccccccccccccccccccccccccccccccccccccccccccccccccccccccc" /></g><path
     inkscape:connector-curvature="0"
     id="path4737"
     d=""
     style="overflow:visible;fill:#000000;stroke:#000000;stroke-width:9.08869839;stroke-miterlimit:4;stroke-dasharray:none;stroke-opacity:1" /><path
     style="overflow:visible;fill:#ffffff;stroke:none;stroke-width:9.08869839;stroke-miterlimit:4;stroke-dasharray:none;stroke-opacity:1"
     d="m 294.19613,497.38765 c -0.87904,-1.38855 -2.90298,-6.86524 -4.49763,-12.17041 -3.52143,-11.71529 -6.0422,-15.11453 -13.72962,-18.51427 -8.72124,-3.85695 -10.00189,-7.68938 -6.39403,-19.13483 1.03605,-3.2867 1.54348,-6.31607 1.12764,-6.7319 -0.41585,-0.41584 -2.76193,-0.0941 -5.21351,0.71501 -6.54147,2.15887 -7.89639,0.59741 -7.89639,-9.10004 0,-4.35667 -0.48484,-7.71706 -1.11341,-7.71706 -0.61237,0 -2.41275,1.45831 -4.00084,3.24065 -1.58809,1.78237 -4.34617,3.53242 -6.12907,3.889 -4.56678,0.91335 -6.60689,4.72125 -7.56392,14.11819 l -0.82884,8.13822 -3.00415,-2.36767 c -2.98455,-2.3522 -3.00303,-2.45726 -2.82945,-16.09559 0.15741,-12.36877 -0.0889,-14.26824 -2.48734,-19.18499 -3.018,-6.18673 -8.75632,-9.62346 -16.13962,-9.66615 -5.50133,-0.0318 -10.67749,-2.73688 -11.49883,-6.00934 -0.35582,-1.41774 0.39303,-6.54831 1.66415,-11.40127 2.09437,-7.99611 2.1511,-9.06776 0.60484,-11.42766 -1.57527,-2.40416 -2.65121,-2.81183 -8.10639,-3.07162 -1.12416,-0.0535 -2.76128,-1.85139 -3.82949,-4.20551 -1.11304,-2.45286 -4.80697,-6.42331 -9.15502,-9.84029 -7.93245,-6.23388 -10.21587,-10.40685 -9.06153,-16.55997 0.54974,-2.93037 -0.163,-5.48872 -3.30366,-11.85849 -9.78933,-19.85436 -7.18773,-42.87508 5.94244,-52.58263 1.91828,-1.41825 5.98885,-6.00654 9.04574,-10.1962 3.05689,-4.18968 6.09649,-7.61759 6.75469,-7.61759 0.65819,0 1.92946,1.89348 2.82506,4.20773 3.9432,10.18941 11.98498,22.83266 13.53614,21.28149 0.25583,-0.25583 -1.59765,-4.53059 -4.11884,-9.49948 -5.75296,-11.33816 -6.61159,-19.60143 -4.05165,-38.992 1.85606,-14.05906 2.22924,-19.43014 1.87101,-26.92946 -0.16716,-3.4995 -0.65981,-2.13998 -2.23625,6.17134 -2.48601,13.10661 -4.52789,19.29953 -10.17714,30.86656 -12.41744,25.42522 -37.17475,45.73774 -63.34844,51.97526 -4.94789,1.17914 -12.62408,3.97088 -17.05822,6.20387 -7.83166,3.94397 -37.342121,14.64386 -37.342121,13.53951 0,-2.53177 4.18132,-9.15238 9.56466,-15.14449 8.24879,-9.1816 12.66332,-16.07661 13.54555,-21.15669 0.38297,-2.20529 1.93843,-6.60993 3.45656,-9.78808 1.518131,-3.17816 3.749651,-11.00454 4.958921,-17.39196 1.20927,-6.38742 3.1336,-15.65291 4.27629,-20.58998 2.59758,-11.22301 15.73505,-38.92095 23.006,-48.50389 10.6925,-14.09249 25.77066,-25.20535 40.18234,-29.61507 l 7.54231,-2.30781 16.02098,2.26205 c 8.81153,1.24413 20.22774,2.6075 25.36935,3.02971 l 9.34838,0.76768 -7.24075,2.43672 c -12.4425,4.18729 -25.12507,15.97584 -32.29745,30.02075 -1.15007,2.25207 -4.00023,5.27467 -6.33365,6.7169 -3.33964,2.06412 -3.80235,2.70703 -2.17407,3.02071 1.13771,0.21916 4.57952,-1.16243 7.64847,-3.0702 3.06897,-1.90777 5.99255,-3.46867 6.49686,-3.46867 1.53974,0 8.23309,-8.24573 12.68169,-15.62293 5.3651,-8.89708 7.97172,-9.01696 8.47045,-0.38955 0.18589,3.21568 -0.19922,6.85047 -0.85581,8.07732 -1.89884,3.54801 1.9777,5.02603 6.29542,2.40027 5.21281,-3.17009 16.1026,-21.07156 16.1026,-26.47066 0,-2.73912 2.1911,-3.01108 17.60694,-2.18542 13.17677,0.70574 15.287,1.08003 15.73438,2.7908 0.28416,1.08665 3.0549,3.62045 6.15719,5.63067 5.92182,3.83721 11.07259,10.88779 19.50899,26.70473 4.21237,7.89749 14.89203,21.13955 14.99763,18.596 0.0855,-2.05931 -3.96993,-13.07319 -7.05638,-19.16397 -1.60357,-3.16452 -4.95232,-8.10692 -7.44167,-10.98313 -2.48934,-2.87621 -4.52607,-5.73631 -4.52607,-6.35579 0,-0.61948 -1.10003,-3.6834 -2.44449,-6.8087 -1.96625,-4.57068 -3.33823,-6.0883 -7.01289,-7.75727 l -4.56838,-2.07492 15.26241,-0.0247 c 14.05729,-0.0227 15.56346,0.17775 19.07504,2.53856 4.35227,2.92599 5.34794,6.40078 2.61671,9.13202 -2.44344,2.44344 -1.71726,3.01527 3.92808,3.09318 6.56384,0.0906 9.04949,-2.46419 9.04949,-9.30115 0,-5.21443 0.11588,-5.40314 3.6467,-5.93907 2.00569,-0.30443 9.03049,-0.80142 15.61067,-1.10444 l 11.96399,-0.55093 2.97272,6.07601 c 1.63499,3.34181 4.12362,6.98132 5.53028,8.0878 8.77993,6.90628 6.35094,18.5735 -5.04953,24.25458 -6.00383,2.99184 -15.56365,4.01736 -18.72893,2.00913 -2.06782,-1.31193 -0.15275,-5.74745 4.89273,-11.33219 4.39986,-4.87013 6.63067,-5.51155 10.08411,-2.8995 2.84958,2.15532 4.51626,2.17703 2.73911,0.0357 -0.76827,-0.9257 -2.0044,-1.68308 -2.74696,-1.68308 -1.76893,0 -6.22954,-4.77762 -6.22954,-6.67225 0,-0.81308 1.08278,-3.23031 2.40619,-5.37162 2.86216,-4.63109 1.7987,-5.86481 -5.07885,-5.89194 -3.53471,-0.0139 -5.05266,0.72175 -8.05289,3.90292 -4.77695,5.06505 -6.547,12.83564 -5.9095,25.94297 0.61986,12.74423 4.10263,20.80977 12.48643,28.91658 7.02848,6.79627 10.00951,11.9146 17.22219,29.57003 7.2034,17.63273 12.6731,25.5318 20.70238,29.89737 6.10043,3.31684 6.35859,3.3563 12.43132,1.89947 7.23658,-1.73603 10.90187,-0.56068 14.83929,4.75856 3.588,4.84719 3.94837,18.69635 0.68395,26.28472 -3.79873,8.83038 -12.63776,16.34082 -27.60383,23.45472 -6.951,3.30406 -13.11939,6.00737 -13.70751,6.00737 -0.58815,0 -1.76232,0.84495 -2.60931,1.87767 -1.38759,1.69189 -1.26241,1.78863 1.26518,0.97772 6.06746,-1.94659 13.14554,-1.95545 16.97549,-0.0212 8.05301,4.06692 14.06763,11.98804 12.8342,16.90239 -1.20299,4.79307 -5.63763,5.98637 -22.09484,5.94543 -12.38661,-0.0309 -17.85025,0.54846 -31.27813,3.3163 -22.3782,4.61271 -30.19878,5.23121 -39.98918,3.1626 -14.61865,-3.08879 -21.60169,-8.24439 -27.37086,-20.20798 -5.77138,-11.9682 -6.65494,-28.19824 -1.86993,-34.34821 1.15551,-1.48512 1.08887,-1.52887 -0.47244,-0.31012 -0.99972,0.78037 -3.17398,4.4411 -4.83169,8.13495 -1.6577,3.69384 -3.49554,6.71608 -4.0841,6.71608 -0.58857,0 -2.45374,-2.90333 -4.14482,-6.45185 -2.50079,-5.24759 -4.00917,-6.92309 -8.08121,-8.9765 -2.75357,-1.38855 -5.90938,-2.52463 -7.01288,-2.52463 -3.33011,0 -2.25918,2.25299 1.89623,3.98924 4.14637,1.73246 6.73376,5.67689 19.62464,29.91728 7.67901,14.43986 18.83183,26.35534 27.52656,29.4089 10.02829,3.52192 23.60481,3.54604 44.33509,0.0788 19.00496,-3.1787 31.71993,-3.39224 36.90037,-0.61975 3.06543,1.64056 5.72431,6.9142 5.72431,11.35364 0,4.62983 -3.87306,11.4234 -7.85281,13.7743 -3.41132,2.01511 -11.33258,2.48294 -14.38462,0.84956 -2.31029,-1.23644 -31.36056,1.36702 -43.72548,3.91862 -10.08125,2.0803 -22.67995,6.04981 -22.67995,7.1458 0,1.02569 10.55359,4.21543 16.97711,5.13119 4.56638,0.65099 18.25772,-0.72136 23.63519,-2.36908 2.63356,-0.80696 5.02627,3.2216 7.81612,13.1599 1.27366,4.53715 3.09486,9.58618 4.04714,11.22006 1.62708,2.7917 1.54978,3.28059 -1.28297,8.1143 -4.19923,7.16545 -9.6733,9.93909 -9.67935,4.90438 -0.002,-2.18726 -0.58723,-1.84988 -4.37461,2.52464 -2.40436,2.7771 -4.7565,4.67341 -5.22695,4.21403 -0.47047,-0.4594 -0.22117,-3.48897 0.55402,-6.73237 1.46698,-6.13801 1.31381,-12.62949 -0.29804,-12.62949 -0.51323,0 -2.43257,3.88359 -4.2652,8.6302 -3.68843,9.55321 -9.07311,15.49412 -14.04348,15.49412 -4.23181,0 -10.69087,4.02187 -13.84008,8.61783 -2.12042,3.09458 -2.72779,5.38628 -2.66053,10.03876 0.0479,3.31583 -0.0838,6.02877 -0.29284,6.02877 -0.20899,0 -1.0992,-1.1361 -1.97826,-2.52464 z m 46.18352,-167.9447 c -0.95489,-9.9376 -9.38067,-23.8488 -16.75438,-27.66189 -1.7611,-0.9107 -6.27231,-1.76853 -10.02492,-1.90628 -6.23367,-0.22885 -7.05717,0.0214 -9.53515,2.89776 -1.49172,1.73153 -2.71222,4.35425 -2.71222,5.82825 0,3.40698 4.17492,8.12633 7.97589,9.01597 2.48958,0.58271 3.27986,0.0863 5.29196,-3.32394 1.3829,-2.34383 3.24422,-4.00893 4.48135,-4.00893 5.69392,0 16.14004,11.20955 18.43206,19.7791 1.76665,6.60534 3.50331,6.22691 2.84541,-0.62004 z M 237.6119,318.67244 c 0.7213,-1.58306 2.56638,-3.10894 4.18368,-3.4599 4.77759,-1.03674 5.69845,-1.44371 5.69845,-2.51844 0,-1.59189 -4.60541,-2.4179 -9.29777,-1.66761 -4.79401,0.76654 -6.96752,3.62001 -5.92409,7.77736 0.88443,3.52387 3.70591,3.45444 5.33973,-0.13141 z m 51.39841,-6.07821 c 0,-1.19784 0.4386,-2.44898 0.97467,-2.78028 0.53607,-0.33131 1.2968,-2.61686 1.69052,-5.079 1.66327,-10.40158 6.10415,-14.4358 12.80769,-11.63488 4.15623,1.73658 5.36585,1.39928 4.36211,-1.21643 -0.86893,-2.26441 -5.21724,-4.98855 -9.2503,-5.79516 -2.6362,-0.52723 -4.24889,0.0716 -7.79579,2.89469 -3.57406,2.84472 -4.54459,3.20153 -4.83354,1.77697 -0.59678,-2.94226 3.97182,-8.17417 9.45618,-10.82911 4.37934,-2.11999 6.32863,-2.39525 13.00124,-1.83584 9.96324,0.83528 18.10307,4.58431 34.36303,15.82686 11.83971,8.1863 24.41691,14.96536 25.58957,13.79271 1.17349,-1.17349 -18.4407,-16.22995 -37.72705,-28.96044 -6.82994,-4.50828 -14.52783,-6.62052 -24.12809,-6.62052 -15.17319,0 -24.79003,6.01968 -28.16527,17.6301 -2.11627,7.27972 -1.49152,10.4993 3.62451,18.67834 4.10756,6.56683 6.03052,7.89077 6.03052,4.15199 z m -6.56362,-66.35816 c 2.76295,-1.47869 5.44155,-7.55983 5.44155,-12.35371 0,-2.90116 -0.28241,-3.30523 -1.56571,-2.2402 -0.86114,0.71469 -1.88711,3.01265 -2.27994,5.10657 -0.47152,2.51344 -2.13188,4.96543 -4.88614,7.21581 -3.82464,3.12492 -3.95562,3.41178 -1.57351,3.44628 1.42912,0.0207 3.61782,-0.50795 4.86375,-1.17475 z m -8.35818,-8.84076 c 1.97573,-1.20466 4.37414,-3.70234 5.32979,-5.55038 1.93088,-3.73387 2.38678,-7.50871 0.51962,-4.30232 -1.44229,2.4768 -7.66129,5.13753 -15.39025,6.58455 -12.77747,2.39222 -25.47412,-3.57172 -24.70175,-11.60303 0.29769,-3.09535 0.85682,-3.74591 3.4782,-4.04694 2.33559,-0.26821 3.96597,0.54318 6.46334,3.21663 1.83692,1.96644 3.62993,4.73101 3.98444,6.1435 1.03415,4.1204 9.9533,5.44246 13.07902,1.93866 0.98036,-1.09893 2.10103,-5.28319 2.54496,-9.50219 0.87263,-8.29293 2.29712,-9.7139 7.68458,-7.66559 2.75348,1.04688 2.95335,0.91046 2.95335,-2.01567 0,-9.23505 -8.41289,-22.61959 -16.45308,-26.17616 -6.44942,-2.85288 -8.73084,-2.27377 -19.88718,5.04814 -10.37149,6.80681 -9.10878,7.94189 3.41548,3.07024 11.6036,-4.51352 16.11123,-4.50927 19.92134,0.0188 6.92102,8.22517 0.14312,17.43509 -9.92903,13.4917 -1.24645,-0.48801 -6.02647,0.0457 -11.20118,1.25062 -13.07312,3.04406 -17.02806,7.42659 -13.4695,14.92572 6.05077,12.75103 30.82905,21.77646 41.65785,15.17374 z"
     id="path4810"
     inkscape:connector-curvature="0" /><path
     style="overflow:visible;fill:#ffffff;stroke:none;stroke-width:9.08869839;stroke-miterlimit:4;stroke-dasharray:none;stroke-opacity:1"
     d="m 294.18202,497.38765 c -0.88681,-1.38855 -2.87232,-6.6742 -4.41223,-11.74588 -3.58843,-11.81837 -6.38349,-15.65846 -13.77726,-18.92834 -8.66523,-3.83218 -10.14133,-8.12801 -6.4826,-18.86583 2.20776,-6.47941 1.26942,-7.79794 -4.32713,-6.08033 -6.19973,1.90276 -7.59021,0.1961 -7.59021,-9.31606 0,-4.24439 -0.41047,-7.71706 -0.91214,-7.71706 -0.50168,0 -2.31097,1.46009 -4.02067,3.24463 -1.7097,1.78453 -4.55953,3.53483 -6.33295,3.88951 -4.22662,0.84532 -6.69291,5.69144 -7.6362,15.00479 l -0.73412,7.24807 -3.00112,-2.36576 c -2.95969,-2.33308 -3.00617,-2.58135 -3.36619,-17.9819 -0.31985,-13.68241 -0.65154,-15.99932 -2.67851,-18.71028 -3.87254,-5.17927 -7.72962,-7.33089 -14.64406,-8.16896 -12.60889,-1.52827 -14.13077,-4.03942 -10.60536,-17.49905 2.09437,-7.99611 2.1511,-9.06776 0.60484,-11.42766 -1.51202,-2.30763 -4.04433,-3.01379 -9.09773,-2.53702 -0.39095,0.0369 -1.6093,-1.93975 -2.70743,-4.39252 -1.28362,-2.86703 -4.61043,-6.5137 -9.31589,-10.21159 -7.94662,-6.24501 -10.45825,-10.90629 -9.13149,-16.94697 0.58239,-2.65167 -0.14623,-5.24685 -3.22798,-11.49724 -5.30114,-10.75169 -7.16263,-21.89686 -5.32395,-31.87572 1.76922,-9.6019 4.4949,-14.75016 10.70191,-20.21379 2.78494,-2.4514 7.34936,-7.56217 10.14315,-11.35727 2.7938,-3.7951 5.59376,-6.90018 6.22215,-6.90018 0.6284,0 1.94171,1.89348 2.91846,4.20773 3.96493,9.39421 6.52019,13.91605 10.13552,17.93597 3.69544,4.10903 3.75964,4.13255 2.34423,0.85856 -0.8004,-1.8514 -2.86649,-6.36925 -4.59131,-10.03967 -4.25498,-9.05459 -4.87674,-18.2515 -2.48591,-36.77078 1.05818,-8.1966 1.76123,-17.93249 1.56233,-21.63529 l -0.36163,-6.73236 -1.5468,8.38896 c -7.5821,41.1209 -35.33001,72.69422 -72.59514,82.60329 -6.1241,1.62844 -14.51904,4.66362 -18.65542,6.74485 -4.13639,2.08123 -14.139291,6.0511 -22.228681,8.82193 -14.11315,4.83412 -14.67782,4.93675 -13.96216,2.53733 1.13332,-3.79967 3.61095,-7.32935 11.48625,-16.36354 7.58607,-8.7024 11.4016,-15.56292 11.4425,-20.57416 0.0136,-1.6607 0.49688,-3.31132 1.07407,-3.66803 2.08978,-1.29156 5.659581,-13.12339 7.872221,-26.09187 1.24335,-7.2874 3.07425,-15.98955 4.06866,-19.3381 2.90863,-9.79443 16.4951,-37.04451 22.25438,-44.63509 10.70204,-14.10506 25.77054,-25.20538 40.21575,-29.62522 7.32467,-2.24114 7.97539,-2.25987 19.63607,-0.5651 6.6332,0.96407 18.091,2.35969 25.46176,3.10138 l 13.4014,1.34852 -5.62993,1.83534 c -12.76911,4.1627 -24.27038,13.78767 -31.74798,26.56866 -2.11352,3.61249 -5.64801,8.19022 -7.85443,10.17274 -5.06957,4.5551 -2.58608,4.73017 4.57704,0.32264 3.00893,-1.8514 5.87362,-3.36619 6.36603,-3.36619 1.606,0 6.57108,-6.00478 11.89082,-14.38077 3.6714,-5.78065 5.78295,-8.09591 7.13718,-7.82569 1.62316,0.32387 1.9145,1.73598 1.86741,9.05099 -0.0532,8.25853 0.0634,8.66723 2.47063,8.66723 1.42399,0 4.23033,-1.75445 6.43123,-4.02064 4.03083,-4.15042 13.03414,-20.24102 13.03414,-23.29446 0,-2.98032 2.04533,-3.26187 17.63188,-2.42706 12.6907,0.67971 15.26213,1.11529 15.67056,2.65446 0.26872,1.01273 2.98158,3.48451 6.02858,5.49285 5.75422,3.79274 10.79791,10.6594 20.14173,27.42168 4.70995,8.44937 14.43349,20.62143 14.53303,18.19264 0.0788,-1.92299 -3.90246,-12.95162 -6.66508,-18.46313 -1.37713,-2.74742 -4.45773,-7.34475 -6.84577,-10.21628 -2.38807,-2.87154 -5.36817,-7.96388 -6.62248,-11.31631 -2.41332,-6.45017 -5.5049,-10.09941 -10.11263,-11.93676 -2.08239,-0.83037 1.09602,-1.13558 12.34325,-1.18527 13.25052,-0.0586 15.60932,0.21444 18.83221,2.17943 4.72663,2.8818 5.56123,5.20224 3.29275,9.15484 l -1.82348,3.17722 h 5.38422 c 6.91092,0 9.09821,-2.23449 9.09821,-9.29453 0,-6.08821 -0.52842,-5.89948 19.32851,-6.90332 l 12.03514,-0.60841 2.90061,6.13138 c 1.59533,3.37227 4.05196,7.03703 5.45914,8.14393 8.83397,6.9488 6.22571,19.12291 -5.24076,24.46141 -5.92471,2.7584 -15.5546,3.6951 -18.53674,1.80306 -2.06782,-1.31193 -0.15275,-5.74745 4.89273,-11.33219 4.39986,-4.87013 6.63067,-5.51155 10.08411,-2.8995 2.84958,2.15532 4.51626,2.17703 2.73911,0.0357 -0.76827,-0.9257 -2.0044,-1.68308 -2.74696,-1.68308 -1.76893,0 -6.22954,-4.77762 -6.22954,-6.67225 0,-0.81308 1.08278,-3.23031 2.40619,-5.37162 2.82236,-4.56668 1.79176,-5.86384 -4.68115,-5.89194 -8.56513,-0.0372 -13.5363,7.68853 -14.33656,22.28052 -0.88723,16.17748 2.40896,26.06799 11.85288,35.56574 7.40517,7.44737 10.3616,12.39547 17.15626,28.71405 3.17105,7.61586 6.80654,15.61425 8.07886,17.77422 3.45415,5.86399 9.8237,12.24572 14.76861,14.79685 3.97709,2.05182 4.99003,2.13635 10.80693,0.90193 7.46406,-1.58398 11.09991,-0.40684 14.99454,4.85459 3.60059,4.86418 3.94848,18.69609 0.66236,26.3349 -4.54442,10.56377 -17.32519,19.94206 -38.98717,28.60803 -2.62282,1.04927 -4.76877,2.4708 -4.76877,3.15896 0,0.77886 0.7413,0.91895 1.96362,0.3711 4.18092,-1.87392 12.31736,-1.81949 16.13393,0.10795 8.05301,4.06692 14.06763,11.98803 12.8342,16.90239 -1.20365,4.7957 -5.80995,6.0709 -21.92961,6.0709 -11.65019,0 -18.19115,0.68285 -31.75395,3.31508 -9.39476,1.82329 -20.11093,3.63859 -23.81373,4.03399 -13.79393,1.47298 -32.02974,-4.4739 -38.09226,-12.42227 -7.52827,-9.87007 -11.78673,-25.59176 -9.64144,-35.59493 0.66807,-3.11513 1.02542,-5.85315 0.79408,-6.08448 -0.23134,-0.23134 -1.78491,2.61944 -3.45238,6.33507 -1.66747,3.71563 -3.51332,6.75568 -4.10188,6.75568 -0.58857,0 -2.45374,-2.90332 -4.14482,-6.45185 -2.50079,-5.24758 -4.00917,-6.92308 -8.08121,-8.97649 -5.21532,-2.62994 -9.01924,-3.26047 -9.01924,-1.49499 0,0.56632 1.84633,1.95487 4.10296,3.08568 4.36708,2.18836 6.33857,5.15951 18.8993,28.48216 17.06444,31.68516 31.05885,37.68856 71.81193,30.8063 18.61166,-3.14309 32.33228,-3.38169 37.43468,-0.65097 3.11522,1.66723 5.76469,6.92022 5.76469,11.42945 0,4.14553 -4.60249,12.65805 -7.54417,13.95331 -1.09635,0.48272 -10.57713,0.9886 -21.0684,1.12416 -10.65278,0.13764 -23.78367,1.01633 -29.7393,1.99007 -11.94385,1.95283 -29.16893,7.04259 -29.16893,8.61901 0,1.19455 8.86593,3.99229 16.0793,5.074 4.44545,0.66664 16.21953,-0.56409 22.85791,-2.38931 3.08221,-0.84746 6.29515,3.95196 8.27672,12.36363 0.73912,3.13746 2.33636,7.8432 3.54942,10.4572 l 2.20559,4.7527 -2.95638,5.0447 c -3.76372,6.4223 -9.61835,9.85959 -9.61835,5.64699 0,-2.60268 -1.13459,-2.0409 -5.09879,2.52464 -2.00944,2.31425 -4.04267,3.82694 -4.51828,3.36155 -0.47562,-0.4654 -0.2736,-3.40726 0.44894,-6.53746 3.10732,-13.46164 0.62907,-16.94224 -3.8036,-5.34203 -3.56211,9.32193 -9.53297,16.65288 -13.56331,16.65288 -10.03942,0 -19.00856,10.80019 -17.50075,21.0735 0.62233,4.24019 -0.16619,4.59632 -2.40732,1.08722 z m 44.67183,-174.32413 c -2.17041,-6.90028 -8.45907,-16.4807 -13.04483,-19.87306 -3.94046,-2.91499 -14.99699,-4.48251 -18.78139,-2.6627 -7.3938,3.55547 -7.20582,11.98322 0.35524,15.92746 4.18568,2.18347 4.33673,2.18745 5.58789,0.14749 3.48186,-5.67703 4.79924,-6.66599 7.85727,-5.89846 6.45696,1.62059 13.15905,9.93324 18.2067,22.5819 1.92757,4.83021 1.77104,-4.017 -0.18088,-10.22263 z m -101.25149,-4.37016 c 0.84545,-1.85555 2.74437,-3.20522 5.58626,-3.97047 2.36798,-0.63762 4.30541,-1.58592 4.30541,-2.10733 0,-1.42294 -4.9434,-2.0868 -9.73701,-1.30763 -3.28445,0.53387 -4.48473,1.36998 -5.30177,3.6932 -0.75309,2.1414 -0.63936,3.50529 0.39634,4.75323 2.04186,2.4603 3.2715,2.18567 4.75077,-1.061 z m 51.40795,-6.09913 c 0,-1.19784 0.4386,-2.44898 0.97467,-2.78028 0.53607,-0.33131 1.2968,-2.61686 1.69052,-5.079 0.3937,-2.46213 1.31572,-5.79322 2.04892,-7.40242 1.59338,-3.4971 6.46286,-6.29012 8.78529,-5.03904 3.95671,2.1315 6.69771,2.44067 6.69771,0.7555 0,-2.24157 -4.91819,-5.99807 -9.03748,-6.90283 -2.64515,-0.58097 -4.29147,-0.0148 -8.08225,2.77951 -3.86229,2.84702 -4.83086,3.17168 -5.13352,1.72079 -0.63983,-3.06714 5.06908,-9.21567 10.47294,-11.27942 7.03843,-2.688 17.70358,-1.6161 26.94402,2.70803 3.83351,1.7939 12.71962,7.18747 19.74695,11.98568 12.0446,8.22399 24.19583,14.71579 25.36198,13.54966 0.99767,-0.99768 -19.95355,-16.94468 -38.18229,-29.06239 -6.30005,-4.18801 -14.25472,-6.41422 -22.9192,-6.41422 -11.23788,0 -16.7555,1.87609 -22.80909,7.7555 -4.38815,4.26189 -5.52129,6.22751 -6.58191,11.41747 -1.45962,7.14248 -0.8191,9.66714 4.60119,18.13557 3.62563,5.66456 5.42155,6.70863 5.42155,3.15189 z m -5.56551,-67.43471 c 2.70416,-2.70416 4.44344,-6.88767 4.44344,-10.68783 0,-4.26283 -2.01019,-3.21222 -3.52449,1.84207 -0.83975,2.80283 -2.91152,5.84445 -5.34998,7.85443 l -3.97952,3.28025 h 3.06082 c 1.68344,0 4.09083,-1.03001 5.34973,-2.28892 z m -10.61113,-7.36805 c 2.08922,-0.9914 4.8164,-3.44941 6.0604,-5.46224 2.80308,-4.53549 2.90213,-6.00519 0.24249,-3.59824 -2.56679,2.3229 -9.34244,4.70509 -16.3249,5.7395 -11.49264,1.70258 -23.17206,-4.16018 -23.17206,-11.63175 0,-7.07776 7.44983,-5.92706 12.42583,1.91929 3.54593,5.59135 5.30667,6.77476 10.27005,6.90269 4.09175,0.10546 6.07465,-3.25006 7.03324,-11.90189 0.8353,-7.539 1.84921,-8.57694 7.31119,-7.48454 3.10327,0.62064 3.35308,0.4297 3.34295,-2.55515 -0.013,-3.83411 -4.33724,-13.50258 -8.45147,-18.89662 -4.16464,-5.46013 -11.63496,-8.89763 -16.44116,-7.56547 -4.29182,1.18959 -19.79263,11.7036 -18.0909,12.27085 0.62771,0.20923 5.11876,-1.15117 9.98013,-3.02311 11.66141,-4.4904 16.20077,-4.47935 20.01091,0.0487 3.22292,3.83022 3.7377,8.44473 1.31209,11.76162 -1.36108,1.86119 -3.03431,2.18776 -11.50113,2.24478 -11.35784,0.0765 -18.11813,1.70402 -22.40919,5.39503 -13.14194,11.30422 20.84241,34.16885 38.40153,25.83651 z"
     id="path4812"
     inkscape:connector-curvature="0" /><path
     style="overflow:visible;fill:#ffffff;stroke:none;stroke-width:9.08869839;stroke-miterlimit:4;stroke-dasharray:none;stroke-opacity:1"
     d="m 294.43043,497.66816 c -1.03032,-1.54284 -2.93844,-6.33964 -4.24029,-10.65958 -3.6905,-12.24631 -6.45518,-16.30271 -13.51573,-19.83066 -3.37045,-1.68412 -6.77053,-3.94059 -7.55568,-5.01436 -1.88354,-2.57589 -1.78711,-7.55157 0.2783,-14.36037 0.92489,-3.04895 1.28533,-5.93984 0.80096,-6.42419 -0.48435,-0.48435 -2.74119,-0.30962 -5.01519,0.38827 -6.08766,1.86837 -7.59021,0.14833 -7.59021,-8.68881 0,-3.89939 -0.42767,-7.35411 -0.95037,-7.67716 -0.52269,-0.32304 -2.33199,0.85478 -4.02067,2.61738 -1.68867,1.76259 -4.5213,3.49493 -6.29472,3.84961 -4.20129,0.84026 -6.44986,5.25935 -7.52745,14.79366 l -0.84287,7.45758 -2.978,-2.34674 c -2.92884,-2.30803 -2.9844,-2.60473 -3.36619,-17.97877 -0.33959,-13.67518 -0.67779,-16.01964 -2.70163,-18.72847 -3.8706,-5.1806 -7.72806,-7.33304 -14.64406,-8.1713 -12.11805,-1.46878 -14.09967,-4.22279 -11.17093,-15.52516 3.22727,-12.45444 2.14532,-15.98326 -4.91627,-16.03459 -3.53359,-0.0257 -4.21345,-0.52821 -6.02154,-4.45101 -1.24751,-2.70654 -4.80973,-6.62741 -9.18225,-10.10672 -7.64644,-6.08446 -10.27545,-10.91759 -9.02803,-16.59704 0.49229,-2.2414 -0.40634,-5.49066 -3.17977,-11.49723 -9.51249,-20.60182 -7.66827,-40.25518 4.87875,-51.99145 2.93338,-2.74383 7.54966,-7.89818 10.25839,-11.45409 2.70872,-3.5559 5.55053,-6.67121 6.31513,-6.92287 0.83719,-0.27557 2.97283,3.01531 5.36887,8.27308 3.83764,8.42114 9.23598,16.7823 10.20789,15.81038 0.25875,-0.25873 -1.35337,-4.31085 -3.58248,-9.00472 -5.12256,-10.78669 -5.94516,-20.3417 -3.39497,-39.4353 0.98569,-7.37997 1.74331,-16.72113 1.68361,-20.75813 l -0.10852,-7.34 -2.19874,10.65958 c -8.17512,39.6334 -35.47247,70.37968 -71.08084,80.06167 -5.55331,1.50995 -14.13636,4.60863 -19.07343,6.88594 -11.883681,5.48156 -37.589061,14.24359 -37.589061,12.81276 0,-2.4125 3.50567,-7.67287 11.12578,-16.6946 7.95374,-9.41673 12.43751,-16.89965 12.43751,-20.75684 0,-1.13417 1.2422,-4.6879 2.76044,-7.8972 1.518231,-3.20928 3.806211,-11.33685 5.084381,-18.06125 4.03287,-21.21665 6.39808,-28.82055 13.82938,-44.45986 8.0914,-17.02849 12.08353,-23.33677 20.34975,-32.15619 10.18497,-10.86656 21.91357,-18.3001 34.77148,-22.03799 6.29684,-1.83055 7.27709,-1.81244 23.51537,0.43427 9.31955,1.28945 20.68466,2.68247 25.25582,3.09562 l 8.31118,0.75117 -6.71425,2.43117 c -3.69286,1.33716 -8.52307,3.54908 -10.7338,4.91538 -5.63217,3.48088 -16.72976,15.62654 -20.83645,22.80429 -1.89817,3.31766 -5.03563,7.20351 -6.97213,8.63523 -5.694,4.20975 -3.03783,4.00959 5.51296,-0.41544 8.20976,-4.24856 11.11845,-7.21401 18.49351,-18.85438 2.84517,-4.49066 4.73763,-6.40945 6.06481,-6.1492 1.61284,0.31627 1.93751,1.75452 1.98008,8.77162 0.0453,7.4644 0.29488,8.4291 2.25519,8.71656 3.26148,0.47829 9.83747,-6.87023 14.85501,-16.60016 2.38485,-4.62464 4.64702,-9.61939 5.02707,-11.09946 l 0.69101,-2.69103 15.27417,0.79224 15.27417,0.79223 4.51225,4.14291 c 11.17153,10.25715 13.60911,13.26204 19.96581,24.61264 6.99675,12.49345 14.24085,22.80006 16.5569,23.55646 3.66149,1.19579 -6.04301,-21.01541 -12.42994,-28.44904 -2.1832,-2.54099 -5.00243,-7.38087 -6.26497,-10.75529 -2.42726,-6.48746 -5.51306,-10.13666 -10.12757,-11.97672 -2.08239,-0.83037 1.09602,-1.13558 12.34325,-1.18527 13.25052,-0.0586 15.60932,0.21444 18.83221,2.17943 4.72663,2.8818 5.56123,5.20224 3.29275,9.15484 l -1.82348,3.17722 h 4.99709 c 6.72189,0 9.48534,-2.76385 9.48534,-9.48669 0,-5.85757 -0.4925,-5.68527 19.31988,-6.7588 l 12.02649,-0.65165 2.93154,5.78513 c 1.61236,3.18182 4.14124,6.99484 5.61978,8.47336 3.75923,3.75924 4.98543,6.39349 4.98057,10.69983 -0.007,5.79058 -3.73886,10.77007 -10.39562,13.86928 -5.92471,2.7584 -15.5546,3.6951 -18.53674,1.80306 -2.06782,-1.31193 -0.15275,-5.74745 4.89273,-11.33219 4.45931,-4.93593 6.49309,-5.48727 10.32942,-2.80019 1.37159,0.9607 2.47435,1.33939 2.45057,0.84154 -0.0238,-0.49784 -1.62132,-1.91502 -3.55011,-3.14929 -5.76465,-3.6889 -6.33135,-5.54611 -3.30386,-10.82746 3.05655,-5.33204 2.24338,-6.51903 -4.48526,-6.54731 -9.49093,-0.0399 -15.20272,11.74381 -14.10271,29.09451 0.82595,13.02815 3.13288,18.89253 10.73023,27.2771 9.41343,10.38885 10.75461,12.60486 18.26661,30.18153 7.39538,17.30384 11.13497,23.5947 16.93098,28.48185 6.26563,5.28312 10.29253,6.44414 17.08148,4.92485 11.10721,-2.48569 16.65065,2.90508 17.28192,16.80599 0.7944,17.4929 -7.27367,27.40854 -31.59869,38.83468 -7.82698,3.67656 -14.23088,7.05819 -14.23088,7.51474 0,0.45656 1.29519,0.33767 2.87821,-0.26419 4.32907,-1.64592 11.37633,-1.31808 15.41102,0.7169 7.86279,3.96576 13.86296,11.94065 12.64252,16.80327 -1.17559,4.68391 -5.38863,5.76676 -24.7604,6.36402 -13.24259,0.40827 -21.48579,1.30146 -31.41773,3.40425 -7.40561,1.56791 -16.99923,3.18775 -21.31916,3.59966 -14.67647,1.39939 -31.90087,-4.2529 -38.2245,-12.5436 -7.23139,-9.48085 -11.7464,-26.06693 -9.7034,-35.64593 0.59966,-2.81161 0.87111,-5.11202 0.60322,-5.11202 -0.2679,0 -1.7585,2.77709 -3.31242,6.17133 -1.55393,3.39423 -3.28598,6.17133 -3.84899,6.17133 -0.56301,0 -2.52523,-2.97461 -4.3605,-6.61025 -2.69053,-5.32991 -4.28359,-7.06856 -8.22484,-8.97649 -5.12668,-2.48178 -8.66772,-3.04567 -8.66772,-1.3803 0,0.54226 1.5398,1.62373 3.42177,2.40327 4.14681,1.71766 7.33106,6.30526 17.26721,24.87705 19.30712,36.08723 31.44902,41.93562 73.14938,35.23384 27.85114,-4.47604 37.83826,-3.75031 41.98524,3.05091 2.796,4.58554 2.77634,9.81123 -0.0578,15.36667 -3.43445,6.73209 -5.02902,7.18826 -25.80374,7.38209 -11.4663,0.10693 -22.99894,0.91278 -30.29567,2.1168 -13.00116,2.14531 -29.17359,6.83754 -29.17359,8.46438 0,1.21045 9.50964,4.05166 16.83091,5.02857 2.79974,0.37359 9.29842,-0.082 14.58681,-1.02275 8.04837,-1.43163 9.77632,-1.45789 11.06702,-0.16826 1.2416,1.24058 4.54373,9.7865 9.78305,25.31857 0.72611,2.15259 -5.36095,11.78081 -8.51518,13.4689 -2.06079,1.10291 -2.48912,0.95466 -3.01133,-1.04227 -0.81887,-3.13139 -1.21291,-2.9954 -5.44586,1.87966 -2.00945,2.31425 -4.04268,3.82694 -4.51829,3.36155 -0.47562,-0.4654 -0.27359,-3.40726 0.44894,-6.53746 1.70765,-7.39787 1.70499,-12.56987 -0.006,-11.9995 -0.72593,0.24199 -2.71852,3.89277 -4.42796,8.11285 -3.97871,9.82217 -8.62037,14.72219 -14.72105,15.54047 -8.96532,1.2025 -14.61196,7.77612 -15.43708,17.97124 -0.55891,6.90603 -0.56809,6.9216 -2.4343,4.12702 z m 45.89835,-168.23349 c -1.34905,-10.05786 -10.07371,-24.15894 -16.97349,-27.43309 -5.33845,-2.53327 -16.61387,-2.44531 -18.89053,0.14736 -2.83349,3.22678 -3.35309,6.65769 -1.53941,10.16494 2.67186,5.16683 10.77031,7.51807 10.77031,3.12696 0,-2.86805 4.21678,-5.46808 7.52871,-4.64213 4.68339,1.16798 13.30596,10.72356 15.66175,17.35646 2.40583,6.77378 4.27265,7.4676 3.44266,1.2795 z M 237.60236,318.69336 c 0.84545,-1.85555 2.74437,-3.20522 5.58626,-3.97047 6.47964,-1.74477 5.29559,-3.48087 -2.10911,-3.09242 -5.60425,0.29401 -6.62497,0.71275 -8.08067,3.31511 -1.38887,2.48289 -1.41891,3.27654 -0.18046,4.76876 2.07521,2.50047 3.29845,2.23941 4.78398,-1.02098 z m 51.40795,-6.09913 c 0,-1.19784 0.4386,-2.44898 0.97467,-2.78028 0.53607,-0.33131 1.2968,-2.61686 1.69052,-5.079 1.64505,-10.28762 6.11344,-14.43193 12.62637,-11.71065 2.50078,1.0449 3.89541,1.15532 4.3944,0.34793 1.06698,-1.7264 -2.55647,-5.25701 -6.84924,-6.67374 -3.85502,-1.27227 -6.12054,-0.53404 -12.55621,4.09157 -2.35184,1.69037 -2.52464,1.67804 -2.52464,-0.18 0,-3.53955 5.39003,-9.23004 10.64284,-11.2361 6.89714,-2.63405 17.30385,-1.74562 25.9803,2.21796 3.61693,1.65228 13.46886,7.53038 21.8932,13.06245 14.33028,9.41037 21.66314,13.24629 22.91977,11.98967 0.74817,-0.74818 -14.83693,-12.87287 -29.15947,-22.68511 -14.43992,-9.89265 -21.95617,-12.41479 -34.5475,-11.59268 -11.91672,0.77806 -19.34645,5.1188 -23.60898,13.79331 -3.94921,8.0369 -3.31582,13.29155 2.80643,23.28278 3.45699,5.64164 5.31754,6.74444 5.31754,3.15189 z m -5.75315,-67.49765 c 2.89585,-2.6979 4.63108,-6.67898 4.63108,-10.62489 0,-4.26283 -2.01019,-3.21222 -3.52449,1.84207 -0.83975,2.80283 -2.91152,5.84445 -5.34998,7.85443 -3.90123,3.21572 -3.92345,3.28025 -1.13028,3.28025 1.56707,0 3.98523,-1.05834 5.37367,-2.35186 z m -11.99237,-6.49272 c 3.40659,-1.29849 8.36426,-6.31734 9.129,-9.24165 0.55774,-2.13288 0.45141,-2.17752 -1.33527,-0.5606 -2.49513,2.25806 -9.33641,4.64513 -16.24686,5.66888 -11.49264,1.70258 -23.17206,-4.16018 -23.17206,-11.63175 0,-7.07776 7.44983,-5.92706 12.42583,1.91929 3.44395,5.43053 5.32592,6.76496 9.73489,6.90269 4.30977,0.13463 6.64716,-3.43561 7.50725,-11.46693 0.85613,-7.99451 1.82005,-9.02997 7.37234,-7.9195 3.10179,0.62035 3.35383,0.42828 3.35301,-2.55515 -10e-4,-4.82461 -5.87363,-16.12331 -10.87001,-20.9146 -5.61996,-5.38928 -10.52917,-6.9008 -15.57094,-4.7942 -4.51889,1.88811 -17.68717,10.70662 -17.00554,11.38825 0.26727,0.26728 4.81011,-1.04028 10.09522,-2.90568 12.59425,-4.44522 16.56725,-4.43339 20.34872,0.0606 3.90027,4.63522 3.95816,10.39266 0.12971,12.90116 -2.08207,1.36422 -4.12104,1.63327 -8.16376,1.07726 -6.65638,-0.91549 -20.29944,1.98078 -24.35397,5.17007 -5.48562,4.315 -2.67309,13.38339 6.01901,19.40702 10.04275,6.95962 23.4155,10.23463 30.60343,7.49482 z"
     id="path4814"
     inkscape:connector-curvature="0" /><path
     style="overflow:visible;fill:#ffffff;stroke:none;stroke-width:9.08869839;stroke-miterlimit:4;stroke-dasharray:none;stroke-opacity:1"
     d="m 420.81211,267.85077 c -26.07086,-10.32182 -36.41515,-17.42266 -42.48772,-29.16572 -1.4053,-2.71756 -1.71431,-5.02286 -1.16463,-8.68842 0.88294,-5.88781 -0.32102,-6.33683 -7.36103,-2.74528 -2.41936,1.23426 -6.05997,2.2239 -8.09025,2.19919 l -3.69139,-0.0449 3.36618,-1.7746 c 4.87112,-2.56799 8.1287,-5.81674 8.89532,-8.87121 0.60828,-2.42357 0.93715,-2.54658 3.58404,-1.34058 2.49856,1.13843 3.13763,1.02244 4.47975,-0.81301 1.98671,-2.717 1.05443,-5.87271 -2.95366,-9.9979 l -3.15879,-3.25107 2.87898,-4.35042 c 1.69526,-2.56173 3.09004,-6.54704 3.39232,-9.69293 0.45567,-4.74223 -0.12634,-6.57265 -5.18013,-16.29152 -3.71022,-7.13506 -5.21763,-11.08596 -4.32741,-11.3421 0.75134,-0.21618 6.78781,-0.97115 13.41438,-1.67771 11.65809,-1.24303 12.15577,-1.20519 15.36658,1.16867 8.35792,6.17927 21.47469,25.55712 23.68492,34.99053 1.88288,8.03627 6.48474,17.04867 15.53009,30.41451 8.4893,12.54417 13.28129,21.37194 15.28919,28.16557 1.01371,3.42987 2.27342,4.94384 5.34202,6.42033 2.20853,1.06263 4.33912,2.4557 4.73465,3.09571 2.59419,4.19747 -6.25718,10.12809 -16.04951,10.75355 -5.72533,0.36569 -8.33573,-0.3675 -25.4939,-7.16067 z"
     id="path4816"
     inkscape:connector-curvature="0" /><path
     style="overflow:visible;fill:#ffffff;stroke:none;stroke-width:9.08869839;stroke-miterlimit:4;stroke-dasharray:none;stroke-opacity:1"
     d="m 375.02213,261.00644 c -9.13343,-12.71307 -12.41903,-21.87981 -8.95941,-24.99654 3.95517,-3.56317 4.96226,-2.89046 7.04549,4.70617 5.48711,20.00922 6.7574,25.09105 6.36902,25.47945 -0.23273,0.23272 -2.23752,-2.10238 -4.4551,-5.18908 z"
     id="path4818"
     inkscape:connector-curvature="0" /><path
     style="overflow:visible;fill:#ffffff;stroke:none;stroke-width:9.08869839;stroke-miterlimit:4;stroke-dasharray:none;stroke-opacity:1"
     d="m 294.31016,497.66816 c -1.09646,-1.54284 -3.03355,-6.33964 -4.30466,-10.65958 -3.83505,-13.03361 -6.50451,-16.5693 -16.09599,-21.31917 -5.76658,-2.8557 -7.11005,-6.40939 -5.41866,-14.33306 0.68847,-3.22521 1.63238,-6.82793 2.09759,-8.006 0.78338,-1.98375 0.44684,-2.08728 -4.55618,-1.40153 -7.33477,1.00534 -8.43967,-0.15596 -8.43967,-8.87036 0,-3.89939 -0.42767,-7.35411 -0.95037,-7.67716 -0.52269,-0.32304 -2.3844,0.90948 -4.13714,2.73894 -1.75273,1.82945 -3.88855,3.32629 -4.74626,3.32629 -0.85771,0 -2.99726,1.43778 -4.75454,3.19507 -2.68781,2.6878 -3.32063,4.46926 -3.98589,11.22062 -0.43495,4.41404 -1.14248,8.02555 -1.5723,8.02555 -0.42983,0 -1.83352,-1.1361 -3.11933,-2.52465 -2.07051,-2.23591 -2.38158,-4.19276 -2.72024,-17.11143 -0.31829,-12.14205 -0.7628,-15.24502 -2.65217,-18.51402 -2.64822,-4.58197 -10.46973,-8.9765 -15.97667,-8.9765 -5.0332,0 -10.18633,-2.82026 -10.98779,-6.0135 -0.35981,-1.43359 0.1378,-5.66293 1.10581,-9.39858 3.26619,-12.60462 2.00294,-16.00563 -5.94505,-16.00563 -2.50654,0 -3.56602,-0.64372 -4.15533,-2.52465 -1.15783,-3.69542 -3.91476,-6.88145 -10.8271,-12.51221 -6.85011,-5.58006 -9.27485,-10.05527 -8.41099,-15.52368 0.41625,-2.63492 -0.47112,-6.02319 -3.16311,-12.07781 -6.70862,-15.08851 -7.67998,-30.07678 -2.68481,-41.42758 1.2436,-2.82588 5.17318,-8.16753 8.73242,-11.87034 3.55924,-3.7028 8.36767,-9.13077 10.6854,-12.06216 2.31775,-2.93139 4.70631,-5.32979 5.30794,-5.32979 0.60162,0 2.5723,3.29515 4.37927,7.32254 3.37603,7.52453 9.93091,17.8914 10.77738,17.04494 0.26158,-0.26158 -1.33757,-4.29361 -3.55366,-8.96005 -5.24412,-11.04262 -5.96478,-19.75711 -3.37256,-40.78201 1.05654,-8.56935 1.7554,-17.85283 1.55301,-20.62993 -0.34515,-4.73631 -0.49254,-4.43107 -2.37771,4.92461 -7.9965,39.68457 -34.37196,69.01066 -72.09503,80.16031 -6.14455,1.81612 -14.7064,4.94464 -19.02634,6.95227 -10.536121,4.89655 -36.466991,13.55774 -36.466991,12.18039 0,-2.34469 3.50515,-7.65413 10.69804,-16.20492 7.55827,-8.98515 12.8341,-18.19043 12.8543,-22.42817 0.006,-1.26513 0.46005,-2.77991 1.00895,-3.36619 1.96872,-2.10277 5.722781,-14.75273 7.975061,-26.87337 1.26145,-6.78847 3.06449,-15.02723 4.00674,-18.30834 2.57836,-8.97828 15.44334,-35.336 21.15177,-43.33564 10.67191,-14.95535 26.97606,-26.99667 42.70718,-31.54111 5.75852,-1.66354 7.90628,-1.75789 15.14782,-0.66546 9.21511,1.39014 36.24204,4.5973 39.84878,4.72866 1.23805,0.0451 -0.29952,0.99009 -3.41683,2.09999 -3.11732,1.10991 -7.37992,2.90336 -9.47244,3.98545 -6.11984,3.16469 -15.63441,12.81512 -21.57601,21.88411 -3.03238,4.6285 -6.86768,9.50629 -8.5229,10.83952 -5.39732,4.34743 -1.94657,3.79306 6.54605,-1.05162 7.47702,-4.26533 8.96353,-5.72595 14.88297,-14.62372 8.16349,-12.2709 10.24487,-12.64121 10.5551,-1.8779 0.11534,4.00111 0.24157,7.9059 0.28052,8.67733 0.14369,2.84555 3.9528,1.26574 8.57215,-3.55528 4.07942,-4.25751 11.0356,-16.56614 13.30549,-23.54341 0.65297,-2.00715 1.58525,-2.08807 15.82338,-1.37352 l 15.12955,0.75928 4.65074,4.17868 c 10.37831,9.32488 13.37837,12.9931 19.57006,23.92852 7.13584,12.60293 15.53635,24.57159 17.24617,24.57159 1.07437,0 -3.26902,-13.40018 -6.21342,-19.16959 -0.81392,-1.59484 -3.53289,-5.49699 -6.04215,-8.67146 -2.50927,-3.17445 -5.60904,-8.43364 -6.88839,-11.68709 -2.75035,-6.99431 -4.88343,-9.62277 -9.44215,-11.63504 -3.0083,-1.32789 -1.75568,-1.49009 11.78164,-1.52559 13.22113,-0.0347 15.61646,0.24599 18.83221,2.20663 4.72663,2.8818 5.56123,5.20224 3.29275,9.15484 l -1.82348,3.17722 h 4.99709 c 6.73262,0 9.48534,-2.76167 9.48534,-9.51615 0,-5.98841 -0.59631,-5.76633 18.17533,-6.76878 l 13.12607,-0.70095 2.95402,5.8295 c 1.62473,3.20623 4.16373,7.03921 5.64227,8.51773 5.62645,5.62646 6.55575,11.82982 2.7157,18.12822 -2.99942,4.91962 -12.10444,9.17596 -19.61113,9.16763 -7.33821,-0.008 -8.83217,-0.97385 -7.38695,-4.77505 1.69055,-4.44649 9.02761,-12.02772 11.64032,-12.02772 2.23555,0 2.22403,-0.0906 -0.36211,-2.84344 -2.45694,-2.61528 -2.55291,-3.13296 -1.19619,-6.45185 2.58856,-6.33229 2.22497,-8.05485 -1.78208,-8.44294 -8.79565,-0.8519 -14.65984,7.11883 -15.70876,21.3517 -1.16078,15.75068 2.35362,26.12042 12.46533,36.78074 6.98838,7.36752 10.31044,12.89648 15.84336,26.36843 8.99732,21.90725 14.45152,29.83527 23.55872,34.24398 4.49305,2.17506 5.5073,2.27169 10.9824,1.04643 11.24763,-2.51711 16.77738,2.81108 17.4116,16.77697 0.7944,17.4929 -7.27367,27.40854 -31.59869,38.83468 -7.82698,3.67656 -14.23088,7.05819 -14.23088,7.51474 0,0.45656 1.29519,0.33767 2.87821,-0.26419 4.32907,-1.64592 11.37633,-1.31808 15.41102,0.7169 7.86279,3.96576 13.86296,11.94065 12.64252,16.80327 -1.15925,4.6188 -5.43233,5.74466 -24.19938,6.37602 -12.86607,0.43283 -21.18785,1.38479 -31.97875,3.65813 -25.63489,5.40058 -41.43548,4.16165 -53.99801,-4.234 -10.1124,-6.75819 -17.98582,-27.78985 -15.23387,-40.69294 0.59132,-2.77247 0.85607,-5.04083 0.58836,-5.04083 -0.26771,0 -1.71492,2.77709 -3.21601,6.17133 -1.5011,3.39423 -3.23205,6.17133 -3.84656,6.17133 -0.61452,0 -2.33817,-2.3984 -3.83031,-5.32979 -3.23164,-6.3487 -6.6267,-9.61346 -11.79853,-11.3457 -4.58436,-1.53546 -5.72338,-1.59348 -5.72338,-0.29155 0,0.54226 1.5398,1.62373 3.42177,2.40327 4.1332,1.71204 7.34128,6.2957 17.26101,24.66233 12.19338,22.57636 20.12093,31.27407 32.41117,35.55987 7.87581,2.74645 26.18602,2.48579 44.52539,-0.63381 23.38551,-3.97797 34.21765,-2.96479 38.20426,3.57341 2.79811,4.58899 2.77598,9.81194 -0.0652,15.38106 -3.28797,6.44498 -7.55763,8.26861 -17.30767,7.39236 -9.36819,-0.84194 -33.69651,0.96139 -45.32316,3.35956 -10.67858,2.20261 -22.63482,5.91056 -22.63482,7.01966 0,0.47963 2.90333,1.79826 6.45185,2.93027 7.29765,2.32804 20.10718,2.60946 28.8051,0.63283 4.53598,-1.0308 5.81125,-0.96604 7.13983,0.36253 1.31488,1.31489 4.57162,9.69764 9.87101,25.4078 0.72612,2.15259 -5.36094,11.78081 -8.51518,13.4689 -2.06079,1.10291 -2.48912,0.95466 -3.01133,-1.04227 -0.33483,-1.28044 -0.79558,-2.32807 -1.02386,-2.32807 -0.22828,0 -2.14875,1.89177 -4.26768,4.20392 -2.11894,2.31217 -4.20511,3.85144 -4.63594,3.42059 -0.43083,-0.43082 -0.13929,-4.02355 0.6479,-7.98383 0.78718,-3.96028 1.04126,-8.15042 0.56463,-9.31142 -0.69106,-1.68333 -1.7205,-0.29269 -5.08228,6.86558 -4.88297,10.39738 -8.93716,14.59312 -14.98619,15.50945 -4.73376,0.71709 -11.17611,5.06162 -13.2583,8.94101 -0.73181,1.36345 -1.62221,5.50858 -1.97868,9.21139 l -0.6481,6.73236 z M 339.00513,324.3606 c -2.31266,-7.95528 -10.19155,-19.40711 -15.19341,-22.08337 -5.19537,-2.7798 -15.70267,-2.85103 -18.92039,-0.12829 -3.97643,3.36472 -4.17152,7.4132 -0.54417,11.29327 4.71317,5.04156 7.21179,5.29044 9.96728,0.99283 1.88932,-2.94669 2.96836,-3.55795 6.02065,-3.41056 5.06429,0.24454 11.5881,6.76394 16.10122,16.09033 4.02703,8.32188 5.37011,6.88187 2.56882,-2.75421 z m -95.37815,-9.74827 c 5.18787,-1.43243 3.87638,-3.20638 -2.37051,-3.20638 -7.19727,0 -11.81949,5.04877 -8.06872,8.81335 1.12403,1.12816 1.9102,0.81879 3.95867,-1.55782 1.40583,-1.63105 4.32209,-3.45317 6.48056,-4.04915 z m 50.11525,-17.00455 c 1.4242,-3.74221 6.43309,-6.70919 8.79916,-5.21213 2.37024,1.49969 6.93474,1.3024 6.40826,-0.27698 -0.81029,-2.4309 -6.02174,-5.5353 -9.45617,-5.63295 -1.95033,-0.0554 -5.24234,1.17144 -7.77448,2.89742 -3.76335,2.56524 -4.44771,2.72864 -4.78264,1.14191 -0.60054,-2.84518 3.35297,-7.4517 8.872,-10.33739 4.20737,-2.19987 6.22643,-2.5335 12.9631,-2.14209 9.82968,0.5711 17.77814,4.08169 34.22405,15.11569 12.76645,8.56536 22.94904,14.10612 24.79367,13.49124 2.41397,-0.80466 -32.98734,-26.4669 -42.55206,-30.84578 -13.28203,-6.08071 -30.78066,-4.33915 -39.45059,3.92635 -9.33414,8.89874 -9.24241,22.20835 0.22442,32.557 l 2.34846,2.5672 2.09419,-7.05545 c 1.15179,-3.88051 2.63167,-8.46782 3.28863,-10.19404 z m -11.70755,-51.91054 c 3.13435,-2.19539 5.85356,-7.35029 5.85356,-11.09679 0,-4.36728 -1.98965,-3.4095 -3.51865,1.69384 -0.75055,2.50508 -2.79053,5.75451 -4.53329,7.22095 -1.74277,1.46645 -3.16867,2.95132 -3.16867,3.29973 0,1.21956 2.88913,0.61787 5.36705,-1.11773 z m -10.62308,-7.36238 c 3.47446,-1.78504 8.62221,-6.7688 8.62221,-8.34752 0,-0.89471 -1.38528,-0.647 -4.21718,0.75411 -2.31944,1.14756 -7.14132,2.67373 -10.71527,3.39149 -12.68636,2.54778 -25.46176,-3.11907 -25.46176,-11.2942 0,-7.07867 6.99321,-5.90938 12.77302,2.13569 4.06129,5.65302 7.63533,7.56159 11.7277,6.26272 2.75115,-0.87317 3.50307,-2.62001 5.09655,-11.84023 l 1.26047,-7.2934 4.76824,0.30087 c 4.10593,0.25908 4.76823,-0.008 4.76823,-1.92152 0,-4.23175 -4.52378,-14.28682 -8.53705,-18.97543 -8.31449,-9.71361 -14.19731,-10.35466 -25.98022,-2.83104 -4.46658,2.85199 -8.12106,5.6149 -8.12106,6.13977 0,0.52489 4.25147,-0.54624 9.44771,-2.38029 12.43131,-4.3877 16.4157,-4.36448 20.18718,0.11765 1.87872,2.23275 2.9049,4.80003 2.9049,7.26753 0,5.46163 -3.11623,7.1339 -12.90372,6.92456 -9.20037,-0.19678 -18.45375,1.86078 -22.42821,4.98709 -6.73488,5.29766 -1.13194,16.17249 11.76863,22.84196 9.08028,4.69442 20.02279,6.33765 25.03963,3.76019 z m 91.65477,-49.67458 c 0,-0.24254 -0.78362,-0.74169 -1.74138,-1.10922 -0.99855,-0.38318 -1.44894,-0.19506 -1.05583,0.44099 0.65893,1.06619 2.79721,1.577 2.79721,0.66823 z"
     id="path4820"
     inkscape:connector-curvature="0" /><path
     style="overflow:visible;fill:#ffffff;stroke:none;stroke-width:9.08869839;stroke-miterlimit:4;stroke-dasharray:none;stroke-opacity:1"
     d="m 452.83129,233.97623 c 0,-1.07902 -0.7013,-2.54389 -1.55844,-3.25523 -2.73894,-2.27313 -5.52691,-16.85638 -2.91378,-15.24139 0.62596,0.38687 2.26696,2.81507 3.6467,5.39601 l 2.5086,4.69263 0.56104,-7.85443 0.56103,-7.85442 3.27635,5.47323 c 2.88946,4.8269 3.43843,5.25156 4.64895,3.5961 0.75492,-1.03244 1.7099,-4.12654 2.12218,-6.87582 0.41228,-2.74926 1.09736,-4.99353 1.5224,-4.98726 0.42503,0.007 1.61892,2.02598 2.65307,4.48825 1.03415,2.46226 2.40244,4.47683 3.04064,4.47683 1.07866,0 2.49278,-4.04317 4.03452,-11.53538 l 0.64202,-3.1199 3.94901,3.01205 c 4.85792,3.70531 6.50974,2.59935 4.88832,-3.27294 -0.63615,-2.30396 -0.84878,-4.68716 -0.47249,-5.29601 0.37629,-0.60884 2.92654,-1.10699 5.66721,-1.10699 4.12669,0 4.98306,-0.36205 4.98306,-2.10674 0,-1.15869 -0.80625,-2.77585 -1.79167,-3.59367 -1.57374,-1.30609 -1.26667,-1.6335 2.52464,-2.69178 3.3991,-0.9488 4.38779,-1.81312 4.6527,-4.06744 0.18666,-1.5884 -0.61951,-4.04308 -1.8111,-5.51464 l -2.14748,-2.65204 3.48642,-2.34948 c 4.37836,-2.9506 4.85165,-5.30482 1.89988,-9.4502 -1.27883,-1.79595 -2.32514,-3.55586 -2.32514,-3.9109 0,-0.35504 2.0197,-1.6759 4.48824,-2.93526 5.62357,-2.86893 5.69423,-5.15891 0.29893,-9.68867 l -4.18942,-3.51734 4.75039,-5.15357 c 2.61272,-2.83446 4.75496,-5.54355 4.76052,-6.02019 0.006,-0.47664 -1.59688,-2.18746 -3.56096,-3.80184 l -3.57109,-2.93522 2.99994,-5.11902 c 3.77194,-6.43633 3.8599,-10.27553 0.289,-12.61528 -3.86875,-2.5349 -4.33763,-4.6424 -2.77827,-12.487525 l 1.37958,-6.94066 -3.55549,-4.04948 c -3.07597,-3.50333 -3.55549,-4.8865 -3.55549,-10.25554 0,-7.62679 -1.25662,-10.15158 -5.51847,-11.08764 -1.81116,-0.39779 -4.06175,-1.8965 -5.00132,-3.33046 -2.53695,-3.87188 -8.39868,-7.04685 -14.7266,-7.9766 -3.27916,-0.48179 -6.17697,-1.62752 -6.97405,-2.75738 -2.27221,-3.22079 -8.72539,-5.5918 -15.21921,-5.5918 -3.37989,0 -8.10039,-0.86107 -10.49,-1.91348 -4.4752,-1.97092 -4.97316,-2.00071 -49.22723,-2.94555 -20.01167,-0.42726 -28.59046,0.44529 -30.8227,3.13498 -0.90052,1.08505 1.22344,1.56008 9.61209,2.14974 5.9224,0.4163 12.5481,1.50068 14.72377,2.40973 4.78183,1.99798 8.17271,2.07825 14.00287,0.33149 3.53013,-1.05765 5.23544,-1.0109 8.54564,0.23428 2.36081,0.88806 8.54998,1.58303 14.42273,1.61949 9.72834,0.0604 10.44179,0.23058 13.13065,3.1319 2.54392,2.74494 3.62242,3.06803 10.24132,3.06803 6.35856,0 7.78494,0.38696 10.15214,2.75415 1.51478,1.51478 2.75414,3.26906 2.75414,3.8984 0,1.48899 5.14813,4.05259 9.99161,4.97551 5.57305,1.06193 6.83932,2.59872 6.83932,8.30044 0,4.37259 0.63054,5.75097 4.60129,10.05872 4.777,5.18245 4.79399,5.27291 2.63389,14.02967 -0.55857,2.26442 0.15416,4.809005 2.73717,9.772085 4.10075,7.87935 4.24591,9.41766 1.24827,13.22855 -2.83686,3.60646 -2.81559,5.46138 0.13915,12.14104 l 2.38326,5.38777 -3.62121,2.95548 -3.62119,2.95547 0.80374,8.5771 0.80374,8.5771 -3.21251,0.68108 c -6.32854,1.3417 -6.65,1.78572 -8.82244,12.18628 -0.62497,2.99201 -0.96252,3.17646 -4.70232,2.56958 -4.32688,-0.70216 -6.87654,0.26411 -12.04423,4.56457 l -3.28146,2.73074 -3.45091,-3.53601 c -1.89801,-1.9448 -7.36412,-6.01556 -12.14691,-9.04613 l -8.69597,-5.51012 v -5.18453 -5.18452 l 6.07167,5.54918 c 13.14878,12.01724 27.08168,10.17784 38.18923,-5.04168 7.15879,-9.80894 9.06134,-16.85597 8.86126,-32.8221 -0.30748,-24.536155 -5.05853,-37.480315 -18.77502,-51.152075 -16.30478,-16.25163 -30.3583,-20.28237 -75.86342,-21.7586 -29.51499,-0.9575 -35.12048,-1.69586 -44.88246,-5.91196 -4.53993,-1.96075 -4.70001,-1.86381 9.53752,-5.77557 28.23549,-7.75769 52.02267,-9.98887 80.06235,-7.50967 32.91344,2.91013 57.72316,12.66167 76.54291,30.08544 7.39635,6.84772 10.67346,13.79029 15.05927,31.90318 7.74958,32.004925 5.44769,66.207565 -6.08007,90.340235 -14.0951,29.5072 -34.0473,47.46483 -57.58603,51.82927 -4.70296,0.87199 -5.32979,0.75748 -5.32979,-0.97365 z"
     id="path4822"
     inkscape:connector-curvature="0" /><path
     style="overflow:visible;fill:#ffffff;stroke:none;stroke-width:9.08869839;stroke-miterlimit:4;stroke-dasharray:none;stroke-opacity:1"
     d="m 452.83129,233.97623 c 0,-1.07902 -0.7013,-2.54389 -1.55844,-3.25523 -1.63925,-1.36047 -4.05187,-9.48302 -4.05187,-13.64143 0,-1.96273 0.30852,-2.18962 1.56237,-1.14903 0.8593,0.71316 2.18287,2.7947 2.94127,4.62565 2.12136,5.12136 3.21181,3.99855 3.57776,-3.68391 l 0.33406,-7.01288 2.80514,4.76011 c 4.20129,7.12924 5.61415,6.48458 7.35846,-3.35754 0.41015,-2.31426 1.06823,-4.20259 1.4624,-4.19632 0.39417,0.007 1.5628,2.02598 2.59695,4.48825 3.01829,7.18634 4.03144,6.1667 7.01366,-7.05855 l 0.70352,-3.1199 3.94901,3.01205 c 4.85792,3.70531 6.50974,2.59935 4.88832,-3.27294 -0.63615,-2.30396 -0.84878,-4.68716 -0.47249,-5.29601 0.37629,-0.60884 2.92654,-1.10699 5.66721,-1.10699 5.52014,0 6.58628,-1.97896 3.12606,-5.80247 -1.73817,-1.92064 -1.71824,-2.05195 0.31137,-2.05195 3.10768,0 7.15594,-3.13955 7.15594,-5.54963 0,-1.13091 -0.95555,-3.23625 -2.12345,-4.67854 -2.11692,-2.61426 -2.11334,-2.6285 1.15974,-4.61897 4.50439,-2.7393 4.95794,-4.6612 2.20218,-9.33187 -1.29829,-2.20044 -2.36053,-4.21415 -2.36053,-4.4749 0,-0.26074 2.0197,-1.50446 4.48824,-2.76382 5.62357,-2.86893 5.69423,-5.15891 0.29893,-9.68867 l -4.18942,-3.51734 4.75039,-5.15357 c 2.61272,-2.83446 4.75496,-5.54355 4.76052,-6.02019 0.006,-0.47664 -1.59688,-2.18746 -3.56096,-3.80184 l -3.57109,-2.93522 2.99994,-5.11902 c 3.77194,-6.43633 3.8599,-10.27553 0.289,-12.61528 -3.86875,-2.5349 -4.33763,-4.6424 -2.77827,-12.487525 l 1.37958,-6.94066 -3.55549,-4.04948 c -3.07597,-3.50333 -3.55549,-4.8865 -3.55549,-10.25554 0,-7.40939 -1.20807,-10.04346 -5.04823,-11.00728 -1.57481,-0.39525 -4.79005,-2.64539 -7.14497,-5.00031 -4.06603,-4.06603 -10.93848,-6.88186 -16.7962,-6.88186 -1.20353,0 -2.47011,-0.73458 -2.81464,-1.6324 -1.1519,-3.0018 -9.27844,-6.22203 -15.70185,-6.22203 -3.34345,0 -8.03415,-0.8409 -10.42376,-1.86867 -3.15156,-1.35546 -8.81302,-2.0036 -20.61466,-2.36003 -40.7161,-1.22968 -59.46926,-0.25787 -59.46926,3.08177 0,0.45372 4.61714,1.17349 10.26031,1.59949 5.64316,0.426 12.01643,1.50831 14.1628,2.40512 4.72926,1.97601 8.13445,2.05149 13.94961,0.30923 3.46042,-1.03677 5.26594,-1.01189 8.38374,0.11552 2.18545,0.79027 8.70513,1.53152 14.48818,1.64721 9.76302,0.19532 10.74149,0.42769 13.68803,3.25067 2.69989,2.58665 4.13795,3.0403 9.63762,3.0403 7.6291,0 10.17994,1.14696 12.49125,5.61654 1.34114,2.59349 3.09668,3.7036 8.14656,5.15147 8.43771,2.4192 9.24217,3.19712 9.24217,8.93722 0,4.03858 0.74599,5.70556 4.48825,10.0294 4.86324,5.61903 5.11625,6.62005 3.24871,12.85332 -1.11647,3.72645 -0.89366,4.822365 2.24412,11.038285 4.09335,8.1089 4.23036,9.58906 1.23954,13.39129 -2.87134,3.6503 -2.8243,5.78433 0.26774,12.1487 l 2.51187,5.17019 -3.68905,3.01085 c -3.6771,3.0011 -3.68798,3.03989 -3.35342,11.9667 l 0.33564,8.95585 -3.89762,0.56559 c -4.21868,0.61219 -6.70165,3.90968 -6.7626,8.98106 -0.0553,4.59738 -1.58113,6.0233 -5.58794,5.22193 -3.84797,-0.76959 -6.56823,0.28873 -11.68442,4.5458 l -3.24725,2.70198 -3.48512,-3.3564 c -1.91683,-1.84601 -7.39833,-5.90382 -12.18112,-9.01735 l -8.69597,-5.66095 v -5.21484 -5.21484 l 5.11626,4.716 c 5.84629,5.38892 12.98182,8.97902 17.886,8.99895 5.00419,0.0203 14.1079,-4.65507 18.25004,-9.37269 4.97865,-5.67039 9.8214,-15.62159 11.4606,-23.55 1.52548,-7.37839 0.79383,-22.3358 -1.69553,-34.66266 -2.87583,-14.240475 -13.07348,-28.820895 -26.36554,-37.697005 -14.35915,-9.58867 -28.0013,-12.334 -67.85119,-13.6543 -27.93731,-0.92562 -36.74215,-2.14896 -44.3104,-6.15645 -3.27455,-1.73391 -3.70854,-1.50953 10.64854,-5.50547 25.18492,-7.00961 31.86076,-7.89852 58.90824,-7.84388 18.82775,0.038 27.95647,0.54224 35.90596,1.98318 26.71345,4.84213 45.62155,13.49781 61.40337,28.10899 5.8555,5.42115 7.44562,7.7606 10.22604,15.0448 13.31133,34.873305 12.9629,78.648315 -0.85612,107.557545 -14.15286,29.6076 -33.98008,47.4518 -57.58906,51.82927 -4.70296,0.87199 -5.32979,0.75748 -5.32979,-0.97365 z"
     id="path4824"
     inkscape:connector-curvature="0" /><path
     style="overflow:visible;fill:#ffffff;stroke:none;stroke-width:9.08869839;stroke-miterlimit:4;stroke-dasharray:none;stroke-opacity:1"
     d="m 83.112029,243.00066 c -16.74937,-4.43574 -29.29918,-12.02946 -42.20458,-25.53739 -15.03839,-15.74051 -25.60997,-36.28914 -30.16248,-58.62869 -3.19677,-15.68679 -3.5927,-45.08804 -0.76139,-56.53916 8.0954,-32.741545 30.74799,-61.035115 60.78577,-75.922725 12.8221,-6.35502 23.38836,-9.33362 39.933041,-11.25705 16.36651,-1.9027 41.84056,-0.8151 52.43618,2.23875 9.83047,2.83331 22.33852,8.95049 25.44724,12.4452 3.42429,3.84948 8.69669,5.57749 17.07539,5.59641 9.43232,0.0213 11.74618,1.14044 8.88791,4.2988 -3.27812,3.62228 -12.80824,7.05905 -21.35061,7.69949 -5.31412,0.39841 -13.11875,-0.19654 -23.36877,-1.78142 -19.02832,-2.9422 -29.91668,-2.97383 -42.95731,-0.12477 -15.95174,3.48507 -27.176611,9.63927 -38.659801,21.19584 -13.7921,13.88024 -21.16231,27.52522 -24.26692,44.927045 -3.967,22.23564 -0.18002,39.23759 11.39174,51.14407 9.25486,9.52255 22.5605,13.16281 32.670971,8.93838 9.50431,-3.97116 22.95805,-17.15073 48.09072,-47.11072 15.22918,-18.15431 28.97065,-31.932045 35.89558,-35.990335 26.43303,-15.49079 61.27399,-11.24939 84.54026,10.29162 6.24123,5.778415 8.47683,7.184695 11.42173,7.184695 5.73141,0 12.82286,4.88903 17.86844,12.31898 2.47738,3.64811 4.50434,6.9131 4.50434,7.25553 0,0.34243 -6.37767,0.62259 -14.17258,0.62259 h -14.17258 l 0.81338,-4.20772 c 2.16921,-11.22152 2.15933,-11.01485 0.45892,-9.60363 -1.2869,1.06802 -3.46834,0.10993 -11.10807,-4.87874 -19.37629,-12.652505 -34.15214,-18.153045 -44.96109,-16.737495 -6.41717,0.8404 -22.33668,6.55898 -29.06413,10.440365 -12.47006,7.19456 -20.47717,14.84506 -48.46493,46.3064 -12.26843,13.79108 -22.37946,22.22608 -33.70589,28.11874 -5.01282,2.60796 -11.22706,6.68929 -13.80943,9.06965 -2.582371,2.38034 -5.438911,4.32789 -6.347871,4.32789 -0.90895,0 -3.00233,-1.51479 -4.65193,-3.36618 -2.61928,-2.9397 -3.75292,-3.36619 -8.94751,-3.36619 -7.4036,0 -9.53512,-1.55981 -9.9666,-7.29341 -0.32066,-4.26106 -0.66997,-4.64918 -6.9014,-7.66791 -6.54771,-3.17196 -6.5619,-3.18966 -5.84777,-7.2934 2.19176,-12.59485 2.26937,-12.02024 -2.0706,-15.3305 -4.55417,-3.47363 -5.0608,-6.01838 -1.78788,-8.98034 3.05613,-2.76576 2.82229,-7.35105 -0.72043,-14.12637 l -2.96455,-5.66959 2.43444,-3.00572 c 4.74665,-5.86057 5.94558,-10.03602 5.11329,-17.807855 -0.77275,-7.21581 -0.76835,-7.23082 3.17368,-10.84159 4.05512,-3.71434 6.4107,-9.60729 6.42205,-16.06607 0.006,-3.1242 0.52101,-3.72424 4.21399,-4.90484 7.40846,-2.3684 11.54016,-5.5971 14.11496,-11.03009 l 2.46,-5.19074 8.19254,-0.63796 c 7.872021,-0.61301 8.360981,-0.82225 12.498261,-5.34836 l 4.30573,-4.7104 9.52261,0.29908 c 7.77629,0.24424 9.92231,-0.061 11.70214,-1.66452 2.74147,-2.46989 6.17664,-2.48956 12.91641,-0.074 5.18066,1.85682 5.42099,1.84199 10.39358,-0.64144 5.73383,-2.86362 7.90974,-2.66918 18.5602,1.65849 9.03306,3.67046 11.31832,3.62199 7.761,-0.16461 -6.12221,-6.51678 -11.4867,-8.91184 -26.2021,-11.69831 -12.88736,-2.44032 -14.75458,-2.55177 -19.52143,-1.1652 -7.61272,2.21437 -15.36402,2.67606 -21.01949,1.252 -4.60859,-1.16046 -5.5016,-0.9758 -13.58687,2.8096 -7.455631,3.49061 -9.383461,3.95493 -13.921171,3.35299 -6.82538,-0.90542 -8.56532,-0.14188 -11.12927,4.88388 -3.00932,5.89874 -5.25127,7.35847 -11.32671,7.37478 -6.13359,0.0164 -8.52334,1.71152 -12.87022,9.1289 -1.75816,3.00007 -4.54058,5.74187 -7.20783,7.1026 -4.64365,2.36902 -5.99704,5.10437 -7.29699,14.74802 -0.51071,3.78868 -1.58691,5.97743 -3.99332,8.12156 -4.2451,3.7824 -4.96508,6.93325 -3.35571,14.68557 1.29198,6.223415 1.26713,6.342595 -2.1293,10.210915 -5.64943,6.43434 -5.62117,10.62321 0.11421,16.93059 2.17174,2.38834 2.16657,2.41421 -1.26228,6.31946 -4.72683,5.38356 -4.48511,8.09706 0.96916,10.87962 2.42666,1.23799 4.72047,2.74983 5.09736,3.35964 0.37688,0.60981 -1.93737,3.57129 -5.14278,6.58108 -3.20542,3.00979 -5.51149,5.98449 -5.12461,6.61048 0.38688,0.62599 2.52798,1.43424 4.758,1.79613 7.85719,1.27504 9.02108,4.24807 3.93209,10.0441 -3.77261,4.29678 -3.4028,5.49545 2.44689,7.93105 2.31425,0.96356 4.20773,2.31225 4.20773,2.99705 0,0.68482 -1.56836,3.19673 -3.48525,5.58206 -1.91689,2.38531 -3.14941,4.88034 -2.73894,5.54451 0.41048,0.66415 3.49363,1.20757 6.85144,1.20757 3.35782,0 6.10512,0.41691 6.10512,0.92647 0,0.50955 -1.26232,2.11235 -2.80515,3.56177 -4.96532,4.66467 -3.80654,5.97899 4.48824,5.09069 8.00247,-0.85699 8.15972,-0.70576 5.61031,5.39584 -3.42906,8.20688 -1.54888,9.51816 5.84798,4.07845 l 4.60698,-3.38802 0.74177,4.79059 c 1.04249,6.73269 2.82237,12.084 4.01922,12.084 0.55887,0 2.36564,-2.65087 4.01502,-5.89083 3.33174,-6.54466 2.81624,-6.93494 5.92836,4.48825 0.71456,2.62282 1.74143,4.76876 2.28193,4.76876 0.54051,0 2.61271,-2.05801 4.6049,-4.57336 4.40769,-5.56515 5.79808,-4.32082 4.7967,4.29284 -0.87361,7.51465 0.76501,7.70841 5.25916,0.62187 2.960411,-4.66809 3.341471,-4.94147 3.341471,-2.39727 0,5.49479 -2.274671,14.81666 -4.110481,16.84521 -2.2724,2.51098 -4.40062,2.48703 -14.40353,-0.16204 z"
     id="path4826"
     inkscape:connector-curvature="0" /><path
     style="overflow:visible;fill:#ffffff;stroke:none;stroke-width:9.08869839;stroke-miterlimit:4;stroke-dasharray:none;stroke-opacity:1"
     d="m 83.112029,243.00066 c -16.50397,-4.37075 -29.03127,-11.87219 -41.59725,-24.90872 -15.02894,-15.59171 -23.97049,-31.84468 -29.83125,-54.22397 -3.04142,-11.61363 -4.81356,-39.89471 -3.24056,-51.71509 5.29169,-39.764685 33.72611,-75.430905 71.89153,-90.175905 14.62574,-5.65058 25.929791,-7.27137 51.026171,-7.3162 20.04074,-0.0358 23.3764,0.23096 31.18376,2.49388 10.31481,2.9897 22.87995,9.09096 26.04138,12.64494 3.42429,3.84948 8.69669,5.57749 17.07539,5.59641 9.43232,0.0213 11.74618,1.14044 8.88791,4.2988 -3.35209,3.70402 -13.04149,7.20754 -21.47781,7.76602 -4.94211,0.32716 -13.56591,-0.36058 -23.24432,-1.85372 -19.01742,-2.93391 -29.95306,-2.9671 -42.78611,-0.12983 -18.1764,4.01862 -32.967371,13.12351 -45.100811,27.76272 -18.16116,21.91176 -24.58787,55.010975 -15.01668,77.339675 2.57479,6.00674 11.13021,15.32282 17.4997,19.05559 5.83472,3.41937 15.23213,4.57504 21.249211,2.61319 10.32033,-3.36494 21.56149,-13.97236 50.03336,-47.21269 22.15478,-25.865235 29.45123,-32.837075 40.44591,-38.646505 24.73461,-13.06941 57.74766,-7.96811 80.38645,12.42163 6.44811,5.807535 8.79178,7.257815 11.72874,7.257815 5.42179,0 13.13702,5.44719 17.91876,12.65118 2.27918,3.43372 4.14397,6.53626 4.14397,6.89454 0,0.35826 -6.37767,0.65138 -14.17258,0.65138 h -14.17258 l 0.63549,-3.64669 c 0.34952,-2.00568 1.00567,-5.41395 1.45811,-7.57391 0.69793,-3.33194 0.57868,-3.72688 -0.78673,-2.60552 -1.29126,1.06048 -3.49091,0.10522 -11.12933,-4.83324 -27.26844,-17.629825 -40.15777,-20.249645 -60.57379,-12.311935 -18.95004,7.367745 -28.58942,15.045725 -52.20421,41.581785 -23.13435,25.99619 -30.04855,32.14048 -44.21085,39.28783 -4.05659,2.04727 -9.72528,5.79564 -12.59709,8.32971 -2.871801,2.5341 -5.933131,4.60743 -6.802951,4.60743 -0.86983,0 -3.03276,-1.51479 -4.80651,-3.36618 -2.72044,-2.83953 -4.08148,-3.36619 -8.69916,-3.36619 -7.44957,0 -9.81486,-1.44506 -9.81486,-5.99636 0,-4.88761 -1.73073,-6.91183 -8.27971,-9.68379 l -5.47456,-2.31719 0.80061,-4.74659 c 2.08738,-12.37558 2.22696,-11.39691 -2.09572,-14.69397 -4.59937,-3.50812 -4.94996,-5.35451 -1.78154,-9.38251 2.94172,-3.73979 2.83262,-5.93353 -0.66246,-13.32153 -3.1804,-6.72281 -3.42173,-5.44599 2.61832,-13.85278 1.5569,-2.16694 1.9163,-4.65469 1.70947,-11.832835 -0.26057,-9.04303 -0.2423,-9.10749 3.60942,-12.74053 3.97839,-3.75252 6.17273,-9.25688 6.18373,-15.51151 0.006,-3.23884 0.48234,-3.71831 5.33605,-5.36779 6.77557,-2.3026 9.71255,-4.77939 12.90127,-10.87976 l 2.55149,-4.88128 8.1926,-0.63796 c 7.869611,-0.61281 8.362091,-0.82337 12.491211,-5.34057 l 4.29861,-4.70261 9.66205,0.18039 c 7.58902,0.14168 10.10128,-0.21712 11.70925,-1.67232 2.6088,-2.36093 6.12212,-2.35077 12.78411,0.037 5.18066,1.85682 5.42099,1.84199 10.39358,-0.64144 5.73383,-2.86361 7.90974,-2.66918 18.5602,1.65849 3.65947,1.48697 7.49927,2.70359 8.53287,2.70359 1.67634,0 1.64846,-0.25645 -0.25822,-2.37473 -5.30343,-5.89198 -11.39985,-8.77815 -24.54553,-11.62033 -15.12915,-3.27102 -17.47898,-3.38904 -23.5965,-1.18513 -5.25756,1.89411 -14.12534,2.17385 -19.55425,0.61686 -3.32577,-0.95382 -5.00344,-0.56902 -12.73096,2.92005 -7.896541,3.56539 -9.567321,3.93532 -14.813541,3.27985 -6.43635,-0.80417 -8.13684,0.10213 -11.15973,5.94775 -2.65465,5.13352 -5.80774,7.2749 -9.59627,6.5172 -5.31013,-1.06203 -8.47766,0.85323 -13.40076,8.10282 -2.50683,3.69147 -5.49334,7.00866 -6.63668,7.37155 -4.20359,1.33416 -6.96983,5.75417 -8.13699,13.00159 -0.90546,5.62242 -1.95597,8.00961 -5.0145,11.39503 -4.23098,4.68319 -4.45759,5.90976 -2.64946,14.34075 1.18329,5.517515 1.11695,5.803745 -2.22791,9.613335 -5.6609,6.4474 -5.6354,10.63214 0.10323,16.9431 2.17174,2.38833 2.16657,2.41421 -1.26228,6.31946 -4.72683,5.38355 -4.48511,8.09705 0.96916,10.87961 2.42666,1.23799 4.72047,2.74983 5.09736,3.35964 0.37688,0.60982 -1.93737,3.57129 -5.14278,6.58108 -3.20542,3.00979 -5.51149,5.98449 -5.12461,6.61048 0.38688,0.62599 2.52798,1.43424 4.758,1.79613 7.6686,1.24443 8.95678,4.14127 4.30169,9.67353 -3.51717,4.17992 -2.96444,6.1889 2.30899,8.39226 4.75148,1.98531 4.88172,2.98225 1.04644,8.01057 -4.05779,5.32003 -2.99676,7.22998 4.01644,7.22998 3.10504,0 5.64552,0.41691 5.64552,0.92647 0,0.50955 -1.26232,2.11235 -2.80515,3.56177 -4.96532,4.66467 -3.80654,5.97899 4.48824,5.09069 8.09153,-0.86653 8.28765,-0.6658 5.61031,5.74197 -3.33608,7.98437 -1.52194,9.15221 5.82455,3.74954 l 4.58356,-3.37078 0.75528,4.21233 c 1.38844,7.74366 2.93895,12.6278 4.00879,12.6278 0.58295,0 2.40941,-2.65087 4.05879,-5.89083 3.3359,-6.55283 3.11842,-6.71556 5.99822,4.48825 0.67416,2.62282 1.62671,4.76876 2.11677,4.76876 0.49006,0 2.55517,-2.07081 4.58912,-4.60179 4.52116,-5.62598 6.00088,-4.34009 4.97266,4.32127 -0.8905,7.50135 0.68035,7.6726 5.14619,0.56103 3.008701,-4.79119 3.349071,-5.03344 3.368241,-2.39727 0.0397,5.46223 -2.231871,14.85377 -4.089161,16.90605 -2.2724,2.51098 -4.40062,2.48703 -14.40353,-0.16204 z"
     id="path4828"
     inkscape:connector-curvature="0" /></g><g
   inkscape:groupmode="layer"
   id="layer3"
   inkscape:label="Layer 2"
   style="display:inline"><path
     sodipodi:nodetypes="sssssss"
     inkscape:connector-curvature="0"
     id="path3876"
     d="m 494.74393,130.08841 c -2e-5,16.8704 -94.17837,33.73346 -210.25557,30.54656 -55.55861,-1.52537 -104.21076,-4.62266 -140.68428,-9.05569 -44.050473,-5.35396 -70.336803,-12.65625 -69.571313,-21.49087 0.86506,-9.98389 33.918343,-18.88512 84.953143,-24.46705 34.87996,-3.815 78.15927,-6.079509 125.30245,-6.079509 116.12097,0 210.25559,13.676159 210.25557,30.546559 z"
     style="overflow:visible;fill:#000000;stroke:#ffffff;stroke-width:8.09761715;stroke-miterlimit:4;stroke-dasharray:none;stroke-opacity:1" /><path
     sodipodi:nodetypes="ccccccc"
     inkscape:connector-curvature="0"
     id="rect4684"
     d="m 142.37312,-4.435293 c 2.6246,-12.640099 8.30817,-17.626322 18.34756,-11.713803 68.43534,6.48461 139.48943,9.256009 245.21856,5.108005 18.5717,-8.983891 14.37745,4.798163 19.77736,8.98605 l 4.26128,124.606981 c -71.68303,18.17795 -133.48112,28.81283 -285.22451,3.17268 z"
     style="overflow:visible;fill:#000000;stroke:#ffffff;stroke-width:8.09761715;stroke-miterlimit:4;stroke-dasharray:none;stroke-opacity:1" /><rect
     y="-2.8484626"
     x="154.27438"
     height="119.05209"
     width="18.34215"
     id="rect4687"
     style="overflow:visible;fill:#ffffff;stroke:#000000;stroke-width:8.09761715;stroke-miterlimit:4;stroke-dasharray:none;stroke-opacity:1" /></g></svg>